{
    "nodes": [
        {
            "label": "[root] azurerm_network_interface.nic",
            "resource_name": "nic",
            "type": "azurerm_network_interface",
            "simple_name": "azurerm_network_interface.nic",
            "definition": {
                "name": "nic",
                "location": "${var.location}",
                "resource_group_name": "${azurerm_resource_group.rg.name}",
                "ip_configuration": {
                    "name": "ipconfig",
                    "subnet_id": "${var.existing_subnet_id}",
                    "private_ip_address_allocation": "Dynamic",
                    "public_ip_address_id": "${azurerm_public_ip.pip.id}"
                }
            },
            "group": 20000,
            "svg_id": "node_0"
        },
        {
            "label": "[root] azurerm_public_ip.pip",
            "resource_name": "pip",
            "type": "azurerm_public_ip",
            "simple_name": "azurerm_public_ip.pip",
            "definition": {
                "name": "PublicIp",
                "location": "${var.location}",
                "resource_group_name": "${azurerm_resource_group.rg.name}",
                "public_ip_address_allocation": "Dynamic",
                "domain_name_label": "${var.hostname}"
            },
            "group": 20000,
            "svg_id": "node_1"
        },
        {
            "label": "[root] azurerm_resource_group.rg",
            "resource_name": "rg",
            "type": "azurerm_resource_group",
            "simple_name": "azurerm_resource_group.rg",
            "definition": {
                "name": "${var.resource_group}",
                "location": "${var.location}"
            },
            "group": 20000,
            "svg_id": "node_2"
        },
        {
            "label": "[root] azurerm_storage_account.stor",
            "resource_name": "stor",
            "type": "azurerm_storage_account",
            "simple_name": "azurerm_storage_account.stor",
            "definition": {
                "name": "${var.hostname}",
                "resource_group_name": "${azurerm_resource_group.rg.name}",
                "location": "${var.location}",
                "account_tier": "${var.storage_account_tier}",
                "account_replication_type": "${var.storage_replication_type}"
            },
            "group": 20000,
            "svg_id": "node_3"
        },
        {
            "label": "[root] azurerm_virtual_machine.vm",
            "resource_name": "vm",
            "type": "azurerm_virtual_machine",
            "simple_name": "azurerm_virtual_machine.vm",
            "definition": {
                "name": "${var.hostname}",
                "location": "${var.location}",
                "resource_group_name": "${azurerm_resource_group.rg.name}",
                "vm_size": "${var.vm_size}",
                "network_interface_ids": [
                    "${azurerm_network_interface.nic.id}"
                ],
                "storage_os_disk": {
                    "name": "${var.hostname}osdisk1",
                    "image_uri": "${var.os_disk_vhd_uri}",
                    "vhd_uri": "https://${var.existing_storage_acct}.blob.core.windows.net/${var.existing_vnet_resource_group}-vhds/${var.hostname}osdisk.vhd",
                    "os_type": "${var.os_type}",
                    "caching": "ReadWrite",
                    "create_option": "FromImage"
                },
                "os_profile": {
                    "computer_name": "${var.hostname}",
                    "admin_username": "${var.admin_username}",
                    "admin_password": "${var.admin_password}"
                },
                "os_profile_linux_config": {
                    "disable_password_authentication": false
                },
                "boot_diagnostics": {
                    "enabled": true,
                    "storage_uri": "${azurerm_storage_account.stor.primary_blob_endpoint}"
                }
            },
            "group": 20000,
            "svg_id": "node_4"
        },
        {
            "label": "[root] provider.azurerm",
            "resource_name": "azurerm",
            "type": "provider",
            "simple_name": "provider.azurerm",
            "definition": "",
            "group": 20000,
            "svg_id": "node_5"
        },
        {
            "label": "[root] var.existing_subnet_id",
            "resource_name": "existing_subnet_id",
            "type": "var",
            "simple_name": "var.existing_subnet_id",
            "definition": {
                "description": "The id for the existing subnet in the existing virtual network"
            },
            "group": 20000,
            "svg_id": "node_6"
        },
        {
            "label": "[root] var.hostname",
            "resource_name": "hostname",
            "type": "var",
            "simple_name": "var.hostname",
            "definition": {
                "description": "This variable is used in this template to create the domain name label as well as the virtual machine name. Must be unique."
            },
            "group": 20000,
            "svg_id": "node_7"
        },
        {
            "label": "[root] var.location",
            "resource_name": "location",
            "type": "var",
            "simple_name": "var.location",
            "definition": {
                "description": "The location/region where the virtual network resides.",
                "default": "southcentralus"
            },
            "group": 20000,
            "svg_id": "node_8"
        },
        {
            "label": "[root] var.resource_group",
            "resource_name": "resource_group",
            "type": "var",
            "simple_name": "var.resource_group",
            "definition": {
                "description": "Name of the resource group in which to deploy your new Virtual Machine"
            },
            "group": 20000,
            "svg_id": "node_9"
        },
        {
            "label": "[root] var.storage_account_tier",
            "resource_name": "storage_account_tier",
            "type": "var",
            "simple_name": "var.storage_account_tier",
            "definition": {
                "description": "Defines the Tier of storage account to be created. Valid options are Standard and Premium.",
                "default": "Standard"
            },
            "group": 20000,
            "svg_id": "node_10"
        },
        {
            "label": "[root] var.storage_replication_type",
            "resource_name": "storage_replication_type",
            "type": "var",
            "simple_name": "var.storage_replication_type",
            "definition": {
                "description": "Defines the Replication Type to use for this storage account. Valid options include LRS, GRS etc.",
                "default": "GRS"
            },
            "group": 20000,
            "svg_id": "node_11"
        },
        {
            "label": "[root] var.admin_password",
            "resource_name": "admin_password",
            "type": "var",
            "simple_name": "var.admin_password",
            "definition": {
                "description": "administrator password (recommended to disable password auth)"
            },
            "group": 20000,
            "svg_id": "node_12"
        },
        {
            "label": "[root] var.admin_username",
            "resource_name": "admin_username",
            "type": "var",
            "simple_name": "var.admin_username",
            "definition": {
                "description": "administrator user name",
                "default": "vmadmin"
            },
            "group": 20000,
            "svg_id": "node_13"
        },
        {
            "label": "[root] var.existing_storage_acct",
            "resource_name": "existing_storage_acct",
            "type": "var",
            "simple_name": "var.existing_storage_acct",
            "definition": {
                "description": "The name of the storage account in which your existing VHD and image reside"
            },
            "group": 20000,
            "svg_id": "node_14"
        },
        {
            "label": "[root] var.existing_vnet_resource_group",
            "resource_name": "existing_vnet_resource_group",
            "type": "var",
            "simple_name": "var.existing_vnet_resource_group",
            "definition": {
                "description": "Name of the existing resource group in which the existing vnet resides"
            },
            "group": 20000,
            "svg_id": "node_15"
        },
        {
            "label": "[root] var.os_disk_vhd_uri",
            "resource_name": "os_disk_vhd_uri",
            "type": "var",
            "simple_name": "var.os_disk_vhd_uri",
            "definition": {
                "description": "Uri of the existing VHD in ARM standard or premium storage"
            },
            "group": 20000,
            "svg_id": "node_16"
        },
        {
            "label": "[root] var.os_type",
            "resource_name": "os_type",
            "type": "var",
            "simple_name": "var.os_type",
            "definition": {
                "description": "Type of OS on the existing vhd. Allowed values: 'windows' or 'linux'.",
                "default": "linux"
            },
            "group": 20000,
            "svg_id": "node_17"
        },
        {
            "label": "[root] var.vm_size",
            "resource_name": "vm_size",
            "type": "var",
            "simple_name": "var.vm_size",
            "definition": {
                "description": "Specifies the size of the virtual machine.",
                "default": "Standard_DS1_v2"
            },
            "group": 20000,
            "svg_id": "node_18"
        },
        {
            "label": "[root] meta.count-boundary (count boundary fixup)",
            "resource_name": "count-boundary",
            "type": "meta",
            "simple_name": "meta.count-boundary (count boundary fixup)",
            "definition": "",
            "group": 20000,
            "svg_id": "node_19"
        },
        {
            "label": "[root] output.hostname",
            "resource_name": "hostname",
            "type": "output",
            "simple_name": "output.hostname",
            "definition": {
                "value": "${var.hostname}"
            },
            "group": 20000,
            "svg_id": "node_20"
        },
        {
            "label": "[root] output.ssh_command",
            "resource_name": "ssh_command",
            "type": "output",
            "simple_name": "output.ssh_command",
            "definition": {
                "value": "ssh ${var.admin_username}@${azurerm_public_ip.pip.fqdn}"
            },
            "group": 20000,
            "svg_id": "node_21"
        },
        {
            "label": "[root] output.vm_fqdn",
            "resource_name": "vm_fqdn",
            "type": "output",
            "simple_name": "output.vm_fqdn",
            "definition": {
                "value": "${azurerm_public_ip.pip.fqdn}"
            },
            "group": 20000,
            "svg_id": "node_22"
        },
        {
            "label": "[root] var.address_space",
            "resource_name": "address_space",
            "type": "var",
            "simple_name": "var.address_space",
            "definition": {
                "description": "The address space that is used by the virtual network. You can supply more than one address space. Changing this forces a new resource to be created.",
                "default": "10.0.0.0/16"
            },
            "group": 20000,
            "svg_id": "node_23"
        },
        {
            "label": "[root] var.existing_subnet_name",
            "resource_name": "existing_subnet_name",
            "type": "var",
            "simple_name": "var.existing_subnet_name",
            "definition": {
                "description": "The name for the existing subnet in the existing virtual network"
            },
            "group": 20000,
            "svg_id": "node_24"
        },
        {
            "label": "[root] var.existing_virtual_network_name",
            "resource_name": "existing_virtual_network_name",
            "type": "var",
            "simple_name": "var.existing_virtual_network_name",
            "definition": {
                "description": "The name for the existing virtual network"
            },
            "group": 20000,
            "svg_id": "node_25"
        },
        {
            "label": "[root] var.image_offer",
            "resource_name": "image_offer",
            "type": "var",
            "simple_name": "var.image_offer",
            "definition": {
                "description": "the name of the offer (az vm image list)",
                "default": "UbuntuServer"
            },
            "group": 20000,
            "svg_id": "node_26"
        },
        {
            "label": "[root] var.image_publisher",
            "resource_name": "image_publisher",
            "type": "var",
            "simple_name": "var.image_publisher",
            "definition": {
                "description": "name of the publisher of the image (az vm image list)",
                "default": "Canonical"
            },
            "group": 20000,
            "svg_id": "node_27"
        },
        {
            "label": "[root] var.image_sku",
            "resource_name": "image_sku",
            "type": "var",
            "simple_name": "var.image_sku",
            "definition": {
                "description": "image sku to apply (az vm image list)",
                "default": "16.04-LTS"
            },
            "group": 20000,
            "svg_id": "node_28"
        },
        {
            "label": "[root] var.image_version",
            "resource_name": "image_version",
            "type": "var",
            "simple_name": "var.image_version",
            "definition": {
                "description": "version of the image to apply (az vm image list)",
                "default": "latest"
            },
            "group": 20000,
            "svg_id": "node_29"
        },
        {
            "label": "[root] var.subnet_prefix",
            "resource_name": "subnet_prefix",
            "type": "var",
            "simple_name": "var.subnet_prefix",
            "definition": {
                "description": "The address prefix to use for the subnet.",
                "default": "10.0.10.0/24"
            },
            "group": 20000,
            "svg_id": "node_30"
        },
        {
            "label": "[root] provider.azurerm (close)",
            "resource_name": "azurerm",
            "type": "provider",
            "simple_name": "provider.azurerm (close)",
            "definition": "",
            "group": 20000,
            "svg_id": "node_31"
        },
        {
            "label": "[root] root",
            "resource_name": "",
            "type": "",
            "simple_name": "root",
            "definition": "",
            "group": 20000,
            "svg_id": "node_32"
        }
    ],
    "edges": [
        {
            "source": "[root] azurerm_network_interface.nic",
            "target": "[root] azurerm_public_ip.pip",
            "svg_id": "edge_0"
        },
        {
            "source": "[root] azurerm_network_interface.nic",
            "target": "[root] var.existing_subnet_id",
            "svg_id": "edge_1"
        },
        {
            "source": "[root] azurerm_public_ip.pip",
            "target": "[root] azurerm_resource_group.rg",
            "svg_id": "edge_2"
        },
        {
            "source": "[root] azurerm_public_ip.pip",
            "target": "[root] var.hostname",
            "svg_id": "edge_3"
        },
        {
            "source": "[root] azurerm_resource_group.rg",
            "target": "[root] provider.azurerm",
            "svg_id": "edge_4"
        },
        {
            "source": "[root] azurerm_resource_group.rg",
            "target": "[root] var.location",
            "svg_id": "edge_5"
        },
        {
            "source": "[root] azurerm_resource_group.rg",
            "target": "[root] var.resource_group",
            "svg_id": "edge_6"
        },
        {
            "source": "[root] azurerm_storage_account.stor",
            "target": "[root] azurerm_resource_group.rg",
            "svg_id": "edge_7"
        },
        {
            "source": "[root] azurerm_storage_account.stor",
            "target": "[root] var.hostname",
            "svg_id": "edge_8"
        },
        {
            "source": "[root] azurerm_storage_account.stor",
            "target": "[root] var.storage_account_tier",
            "svg_id": "edge_9"
        },
        {
            "source": "[root] azurerm_storage_account.stor",
            "target": "[root] var.storage_replication_type",
            "svg_id": "edge_10"
        },
        {
            "source": "[root] azurerm_virtual_machine.vm",
            "target": "[root] azurerm_network_interface.nic",
            "svg_id": "edge_11"
        },
        {
            "source": "[root] azurerm_virtual_machine.vm",
            "target": "[root] azurerm_storage_account.stor",
            "svg_id": "edge_12"
        },
        {
            "source": "[root] azurerm_virtual_machine.vm",
            "target": "[root] var.admin_password",
            "svg_id": "edge_13"
        },
        {
            "source": "[root] azurerm_virtual_machine.vm",
            "target": "[root] var.admin_username",
            "svg_id": "edge_14"
        },
        {
            "source": "[root] azurerm_virtual_machine.vm",
            "target": "[root] var.existing_storage_acct",
            "svg_id": "edge_15"
        },
        {
            "source": "[root] azurerm_virtual_machine.vm",
            "target": "[root] var.existing_vnet_resource_group",
            "svg_id": "edge_16"
        },
        {
            "source": "[root] azurerm_virtual_machine.vm",
            "target": "[root] var.os_disk_vhd_uri",
            "svg_id": "edge_17"
        },
        {
            "source": "[root] azurerm_virtual_machine.vm",
            "target": "[root] var.os_type",
            "svg_id": "edge_18"
        },
        {
            "source": "[root] azurerm_virtual_machine.vm",
            "target": "[root] var.vm_size",
            "svg_id": "edge_19"
        },
        {
            "source": "[root] meta.count-boundary (count boundary fixup)",
            "target": "[root] azurerm_virtual_machine.vm",
            "svg_id": "edge_20"
        },
        {
            "source": "[root] meta.count-boundary (count boundary fixup)",
            "target": "[root] output.hostname",
            "svg_id": "edge_21"
        },
        {
            "source": "[root] meta.count-boundary (count boundary fixup)",
            "target": "[root] output.ssh_command",
            "svg_id": "edge_22"
        },
        {
            "source": "[root] meta.count-boundary (count boundary fixup)",
            "target": "[root] output.vm_fqdn",
            "svg_id": "edge_23"
        },
        {
            "source": "[root] meta.count-boundary (count boundary fixup)",
            "target": "[root] var.address_space",
            "svg_id": "edge_24"
        },
        {
            "source": "[root] meta.count-boundary (count boundary fixup)",
            "target": "[root] var.existing_subnet_name",
            "svg_id": "edge_25"
        },
        {
            "source": "[root] meta.count-boundary (count boundary fixup)",
            "target": "[root] var.existing_virtual_network_name",
            "svg_id": "edge_26"
        },
        {
            "source": "[root] meta.count-boundary (count boundary fixup)",
            "target": "[root] var.image_offer",
            "svg_id": "edge_27"
        },
        {
            "source": "[root] meta.count-boundary (count boundary fixup)",
            "target": "[root] var.image_publisher",
            "svg_id": "edge_28"
        },
        {
            "source": "[root] meta.count-boundary (count boundary fixup)",
            "target": "[root] var.image_sku",
            "svg_id": "edge_29"
        },
        {
            "source": "[root] meta.count-boundary (count boundary fixup)",
            "target": "[root] var.image_version",
            "svg_id": "edge_30"
        },
        {
            "source": "[root] meta.count-boundary (count boundary fixup)",
            "target": "[root] var.subnet_prefix",
            "svg_id": "edge_31"
        },
        {
            "source": "[root] output.hostname",
            "target": "[root] var.hostname",
            "svg_id": "edge_32"
        },
        {
            "source": "[root] output.ssh_command",
            "target": "[root] azurerm_public_ip.pip",
            "svg_id": "edge_33"
        },
        {
            "source": "[root] output.ssh_command",
            "target": "[root] var.admin_username",
            "svg_id": "edge_34"
        },
        {
            "source": "[root] output.vm_fqdn",
            "target": "[root] azurerm_public_ip.pip",
            "svg_id": "edge_35"
        },
        {
            "source": "[root] provider.azurerm (close)",
            "target": "[root] azurerm_virtual_machine.vm",
            "svg_id": "edge_36"
        },
        {
            "source": "[root] root",
            "target": "[root] meta.count-boundary (count boundary fixup)",
            "svg_id": "edge_37"
        },
        {
            "source": "[root] root",
            "target": "[root] provider.azurerm (close)",
            "svg_id": "edge_38"
        }
    ]
}
