<?xml version="1.0" encoding="UTF-8" standalone="no"?>
<!DOCTYPE svg PUBLIC "-//W3C//DTD SVG 1.1//EN"
 "http://www.w3.org/Graphics/SVG/1.1/DTD/svg11.dtd">
<!-- Generated by graphviz version 2.40.1 (20161225.0304)
 -->
<!-- Title: %3 Pages: 1 -->
<svg width="493pt" height="404pt"
 viewBox="0.00 0.00 493.00 404.00" xmlns="http://www.w3.org/2000/svg" xmlns:xlink="http://www.w3.org/1999/xlink">
<g id="graph0" class="graph" transform="scale(1 1) rotate(0) translate(4 400)">
<title>%3</title>
<polygon fill="#ffffff" stroke="transparent" points="-4,4 -4,-400 489,-400 489,4 -4,4"/>
<!-- [root] azurerm_resource_group.rg -->
<g id="node_0" class="node">
<title>[root] azurerm_resource_group.rg</title>
<polygon fill="none" stroke="#000000" points="44,-90 44,-105 155,-105 155,-90 44,-90"/>
<text text-anchor="start" x="46.6914" y="-95.6" font-family="courier new" font-size="8.00" fill="#000000">azurerm_resource_group</text>
<polygon fill="none" stroke="#000000" points="44,-75 44,-90 155,-90 155,-75 44,-75"/>
<text text-anchor="start" x="94.6992" y="-80.6" font-family="courier new" font-size="8.00" fill="#000000">rg</text>
</g>
<!-- [root] provider.azurerm -->
<g id="node_2" class="node">
<title>[root] provider.azurerm</title>
<polygon fill="none" stroke="#000000" points="5,-18 5,-33 49,-33 49,-18 5,-18"/>
<text text-anchor="start" x="7.7969" y="-23.6" font-family="courier new" font-size="8.00" fill="#000000">provider</text>
<polygon fill="none" stroke="#000000" points="5,-3 5,-18 49,-18 49,-3 5,-3"/>
<text text-anchor="start" x="10.1973" y="-8.6" font-family="courier new" font-size="8.00" fill="#000000">azurerm</text>
</g>
<!-- [root] azurerm_resource_group.rg&#45;&gt;[root] provider.azurerm -->
<g id="edge_0" class="edge">
<title>[root] azurerm_resource_group.rg&#45;&gt;[root] provider.azurerm</title>
<path fill="none" stroke="#000000" d="M80.8314,-71.8314C72.2848,-63.2848 61.9443,-52.9443 52.6198,-43.6198"/>
<polygon fill="#000000" stroke="#000000" points="54.9592,-41.0095 45.4133,-36.4133 50.0095,-45.9592 54.9592,-41.0095"/>
</g>
<!-- [root] var.location -->
<g id="node_3" class="node">
<title>[root] var.location</title>
<polygon fill="none" stroke="#000000" points="77,-18 77,-33 121,-33 121,-18 77,-18"/>
<text text-anchor="start" x="91.7988" y="-23.6" font-family="courier new" font-size="8.00" fill="#000000">var</text>
<polygon fill="none" stroke="#000000" points="77,-3 77,-18 121,-18 121,-3 77,-3"/>
<text text-anchor="start" x="79.7969" y="-8.6" font-family="courier new" font-size="8.00" fill="#000000">location</text>
</g>
<!-- [root] azurerm_resource_group.rg&#45;&gt;[root] var.location -->
<g id="edge_1" class="edge">
<title>[root] azurerm_resource_group.rg&#45;&gt;[root] var.location</title>
<path fill="none" stroke="#000000" d="M99,-71.8314C99,-64.131 99,-54.9743 99,-46.4166"/>
<polygon fill="#000000" stroke="#000000" points="102.5001,-46.4132 99,-36.4133 95.5001,-46.4133 102.5001,-46.4132"/>
</g>
<!-- [root] var.resource_group -->
<g id="node_4" class="node">
<title>[root] var.resource_group</title>
<polygon fill="none" stroke="#000000" points="145,-18 145,-33 218,-33 218,-18 145,-18"/>
<text text-anchor="start" x="174.2988" y="-23.6" font-family="courier new" font-size="8.00" fill="#000000">var</text>
<polygon fill="none" stroke="#000000" points="145,-3 145,-18 218,-18 218,-3 145,-3"/>
<text text-anchor="start" x="147.8945" y="-8.6" font-family="courier new" font-size="8.00" fill="#000000">resource_group</text>
</g>
<!-- [root] azurerm_resource_group.rg&#45;&gt;[root] var.resource_group -->
<g id="edge_2" class="edge">
<title>[root] azurerm_resource_group.rg&#45;&gt;[root] var.resource_group</title>
<path fill="none" stroke="#000000" d="M119.6921,-71.8314C129.6948,-63.0485 141.855,-52.3712 152.6999,-42.8489"/>
<polygon fill="#000000" stroke="#000000" points="155.1094,-45.3909 160.3146,-36.1628 150.4908,-40.1308 155.1094,-45.3909"/>
</g>
<!-- [root] azurerm_search_service.search -->
<g id="node_1" class="node">
<title>[root] azurerm_search_service.search</title>
<polygon fill="none" stroke="#000000" points="248,-162 248,-177 359,-177 359,-162 248,-162"/>
<text text-anchor="start" x="250.6914" y="-167.6" font-family="courier new" font-size="8.00" fill="#000000">azurerm_search_service</text>
<polygon fill="none" stroke="#000000" points="248,-147 248,-162 359,-162 359,-147 248,-147"/>
<text text-anchor="start" x="289.0977" y="-152.6" font-family="courier new" font-size="8.00" fill="#000000">search</text>
</g>
<!-- [root] azurerm_search_service.search&#45;&gt;[root] azurerm_resource_group.rg -->
<g id="edge_3" class="edge">
<title>[root] azurerm_search_service.search&#45;&gt;[root] azurerm_resource_group.rg</title>
<path fill="none" stroke="#000000" d="M251.7855,-143.9243C223.8975,-134.0815 189.2094,-121.8386 159.9373,-111.5073"/>
<polygon fill="#000000" stroke="#000000" points="160.8304,-108.1109 150.2356,-108.0831 158.5006,-114.7119 160.8304,-108.1109"/>
</g>
<!-- [root] var.partition_count -->
<g id="node_5" class="node">
<title>[root] var.partition_count</title>
<polygon fill="none" stroke="#000000" points="173,-90 173,-105 251,-105 251,-90 173,-90"/>
<text text-anchor="start" x="204.7988" y="-95.6" font-family="courier new" font-size="8.00" fill="#000000">var</text>
<polygon fill="none" stroke="#000000" points="173,-75 173,-90 251,-90 251,-75 173,-75"/>
<text text-anchor="start" x="175.9941" y="-80.6" font-family="courier new" font-size="8.00" fill="#000000">partition_count</text>
</g>
<!-- [root] azurerm_search_service.search&#45;&gt;[root] var.partition_count -->
<g id="edge_4" class="edge">
<title>[root] azurerm_search_service.search&#45;&gt;[root] var.partition_count</title>
<path fill="none" stroke="#000000" d="M280.0369,-143.8314C268.8285,-134.9632 255.1791,-124.1637 243.0561,-114.5718"/>
<polygon fill="#000000" stroke="#000000" points="244.9697,-111.6229 234.9558,-108.1628 240.6263,-117.1125 244.9697,-111.6229"/>
</g>
<!-- [root] var.replica_count -->
<g id="node_6" class="node">
<title>[root] var.replica_count</title>
<polygon fill="none" stroke="#000000" points="269,-90 269,-105 337,-105 337,-90 269,-90"/>
<text text-anchor="start" x="295.7988" y="-95.6" font-family="courier new" font-size="8.00" fill="#000000">var</text>
<polygon fill="none" stroke="#000000" points="269,-75 269,-90 337,-90 337,-75 269,-75"/>
<text text-anchor="start" x="271.7949" y="-80.6" font-family="courier new" font-size="8.00" fill="#000000">replica_count</text>
</g>
<!-- [root] azurerm_search_service.search&#45;&gt;[root] var.replica_count -->
<g id="edge_5" class="edge">
<title>[root] azurerm_search_service.search&#45;&gt;[root] var.replica_count</title>
<path fill="none" stroke="#000000" d="M303,-143.8314C303,-136.131 303,-126.9743 303,-118.4166"/>
<polygon fill="#000000" stroke="#000000" points="306.5001,-118.4132 303,-108.4133 299.5001,-118.4133 306.5001,-118.4132"/>
</g>
<!-- [root] var.search_name -->
<g id="node_7" class="node">
<title>[root] var.search_name</title>
<polygon fill="none" stroke="#000000" points="355,-90 355,-105 413,-105 413,-90 355,-90"/>
<text text-anchor="start" x="376.7988" y="-95.6" font-family="courier new" font-size="8.00" fill="#000000">var</text>
<polygon fill="none" stroke="#000000" points="355,-75 355,-90 413,-90 413,-75 355,-75"/>
<text text-anchor="start" x="357.5957" y="-80.6" font-family="courier new" font-size="8.00" fill="#000000">search_name</text>
</g>
<!-- [root] azurerm_search_service.search&#45;&gt;[root] var.search_name -->
<g id="edge_6" class="edge">
<title>[root] azurerm_search_service.search&#45;&gt;[root] var.search_name</title>
<path fill="none" stroke="#000000" d="M323.4397,-143.8314C333.3205,-135.0485 345.3324,-124.3712 356.045,-114.8489"/>
<polygon fill="#000000" stroke="#000000" points="358.418,-117.4224 363.5668,-108.1628 353.7674,-112.1906 358.418,-117.4224"/>
</g>
<!-- [root] var.sku -->
<g id="node_8" class="node">
<title>[root] var.sku</title>
<polygon fill="none" stroke="#000000" points="448,-90 448,-105 468,-105 468,-90 448,-90"/>
<text text-anchor="start" x="450.7988" y="-95.6" font-family="courier new" font-size="8.00" fill="#000000">var</text>
<polygon fill="none" stroke="#000000" points="448,-75 448,-90 468,-90 468,-75 448,-75"/>
<text text-anchor="start" x="450.7988" y="-80.6" font-family="courier new" font-size="8.00" fill="#000000">sku</text>
</g>
<!-- [root] azurerm_search_service.search&#45;&gt;[root] var.sku -->
<g id="edge_7" class="edge">
<title>[root] azurerm_search_service.search&#45;&gt;[root] var.sku</title>
<path fill="none" stroke="#000000" d="M343.9317,-143.8831C364.8956,-134.5003 390.9934,-122.6616 421.6994,-108.0738"/>
<polygon fill="#000000" stroke="#000000" points="423.4074,-111.137 430.9268,-103.6732 420.3941,-104.8187 423.4074,-111.137"/>
</g>
<!-- [root] meta.count&#45;boundary (count boundary fixup) -->
<g id="node_9" class="node">
<title>[root] meta.count&#45;boundary (count boundary fixup)</title>
<polygon fill="none" stroke="#000000" points="254,-306 254,-321 327,-321 327,-306 254,-306"/>
<text text-anchor="start" x="280.8984" y="-311.6" font-family="courier new" font-size="8.00" fill="#000000">meta</text>
<polygon fill="none" stroke="#000000" points="254,-291 254,-306 327,-306 327,-291 254,-291"/>
<text text-anchor="start" x="256.8945" y="-296.6" font-family="courier new" font-size="8.00" fill="#000000">count&#45;boundary</text>
</g>
<!-- [root] output.Azure Search Service -->
<g id="node_10" class="node">
<title>[root] output.Azure Search Service</title>
<polygon fill="none" stroke="#000000" points="218,-234 218,-249 252,-249 252,-234 218,-234"/>
<text text-anchor="start" x="220.5977" y="-239.6" font-family="courier new" font-size="8.00" fill="#000000">output</text>
<polygon fill="none" stroke="#000000" points="218,-219 218,-234 252,-234 252,-219 218,-219"/>
<text text-anchor="start" x="222.998" y="-224.6" font-family="courier new" font-size="8.00" fill="#000000">Azure</text>
</g>
<!-- [root] meta.count&#45;boundary (count boundary fixup)&#45;&gt;[root] output.Azure Search Service -->
<g id="edge_8" class="edge">
<title>[root] meta.count&#45;boundary (count boundary fixup)&#45;&gt;[root] output.Azure Search Service</title>
<path fill="none" stroke="#000000" d="M276.1212,-287.8314C269.7864,-279.5386 262.1616,-269.557 255.2074,-260.4533"/>
<polygon fill="#000000" stroke="#000000" points="257.9175,-258.2353 249.0657,-252.4133 252.3548,-262.4847 257.9175,-258.2353"/>
</g>
<!-- [root] var.hosting_mode -->
<g id="node_11" class="node">
<title>[root] var.hosting_mode</title>
<polygon fill="none" stroke="#000000" points="281,-234 281,-249 344,-249 344,-234 281,-234"/>
<text text-anchor="start" x="305.2988" y="-239.6" font-family="courier new" font-size="8.00" fill="#000000">var</text>
<polygon fill="none" stroke="#000000" points="281,-219 281,-234 344,-234 344,-219 281,-219"/>
<text text-anchor="start" x="283.6953" y="-224.6" font-family="courier new" font-size="8.00" fill="#000000">hosting_mode</text>
</g>
<!-- [root] meta.count&#45;boundary (count boundary fixup)&#45;&gt;[root] var.hosting_mode -->
<g id="edge_9" class="edge">
<title>[root] meta.count&#45;boundary (count boundary fixup)&#45;&gt;[root] var.hosting_mode</title>
<path fill="none" stroke="#000000" d="M295.5515,-287.8314C297.9303,-280.0463 300.7638,-270.7729 303.4033,-262.1347"/>
<polygon fill="#000000" stroke="#000000" points="306.7987,-262.9996 306.3737,-252.4133 300.1042,-260.954 306.7987,-262.9996"/>
</g>
<!-- [root] output.Azure Search Service&#45;&gt;[root] azurerm_search_service.search -->
<g id="edge_10" class="edge">
<title>[root] output.Azure Search Service&#45;&gt;[root] azurerm_search_service.search</title>
<path fill="none" stroke="#000000" d="M252.1593,-215.8314C260.1511,-207.3694 269.8038,-197.1489 278.5416,-187.8971"/>
<polygon fill="#000000" stroke="#000000" points="281.288,-190.0866 285.6097,-180.4133 276.1989,-185.2802 281.288,-190.0866"/>
</g>
<!-- [root] provider.azurerm (close) -->
<g id="node_12" class="node">
<title>[root] provider.azurerm (close)</title>
<polygon fill="none" stroke="#000000" points="350,-306 350,-321 394,-321 394,-306 350,-306"/>
<text text-anchor="start" x="352.7969" y="-311.6" font-family="courier new" font-size="8.00" fill="#000000">provider</text>
<polygon fill="none" stroke="#000000" points="350,-291 350,-306 394,-306 394,-291 350,-291"/>
<text text-anchor="start" x="355.1973" y="-296.6" font-family="courier new" font-size="8.00" fill="#000000">azurerm</text>
</g>
<!-- [root] provider.azurerm (close)&#45;&gt;[root] azurerm_search_service.search -->
<g id="edge_11" class="edge">
<title>[root] provider.azurerm (close)&#45;&gt;[root] azurerm_search_service.search</title>
<path fill="none" stroke="#000000" d="M370.7132,-287.8217C368.7649,-268.9506 363.9228,-239.0263 352,-216 346.6521,-205.6717 338.8316,-195.8016 331.002,-187.3911"/>
<polygon fill="#000000" stroke="#000000" points="333.3733,-184.8099 323.8798,-180.1062 328.368,-189.7034 333.3733,-184.8099"/>
</g>
<!-- [root] root -->
<g id="node_13" class="node">
<title>[root] root</title>
<polygon fill="none" stroke="#000000" points="365.3089,-396 296.6911,-396 296.6911,-360 365.3089,-360 365.3089,-396"/>
<text text-anchor="middle" x="331" y="-376.1313" font-family="courier new" font-size="8.00" fill="#000000">[root] root</text>
</g>
<!-- [root] root&#45;&gt;[root] meta.count&#45;boundary (count boundary fixup) -->
<g id="edge_12" class="edge">
<title>[root] root&#45;&gt;[root] meta.count&#45;boundary (count boundary fixup)</title>
<path fill="none" stroke="#000000" d="M320.654,-359.8314C316.0763,-351.7925 310.5948,-342.1666 305.5412,-333.2918"/>
<polygon fill="#000000" stroke="#000000" points="308.4752,-331.3712 300.4853,-324.4133 302.3923,-334.8351 308.4752,-331.3712"/>
</g>
<!-- [root] root&#45;&gt;[root] provider.azurerm (close) -->
<g id="edge_13" class="edge">
<title>[root] root&#45;&gt;[root] provider.azurerm (close)</title>
<path fill="none" stroke="#000000" d="M341.346,-359.8314C345.9237,-351.7925 351.4052,-342.1666 356.4588,-333.2918"/>
<polygon fill="#000000" stroke="#000000" points="359.6077,-334.8351 361.5147,-324.4133 353.5248,-331.3712 359.6077,-334.8351"/>
</g>
</g>
</svg>

