{
    "nodes": [
        {
            "group": 20000,
            "label": "[root] azurerm_container_group.myhw",
            "type": "azurerm_container_group",
            "definition": {
                "name": "mycontainergroup",
                "location": "${azurerm_resource_group.aci-rg.location}",
                "resource_group_name": "${azurerm_resource_group.aci-rg.name}",
                "ip_address_type": "public",
                "os_type": "linux",
                "container": {
                    "name": "webserver",
                    "image": "seanmckenna/aci-hellofiles",
                    "cpu": "1",
                    "memory": "1.5",
                    "port": "80",
                    "protocol": "tcp",
                    "volume": {
                        "name": "logs",
                        "mount_path": "/aci/logs",
                        "read_only": false,
                        "share_name": "${azurerm_storage_share.aci-share.name}",
                        "storage_account_name": "${azurerm_storage_account.aci-sa.name}",
                        "storage_account_key": "${azurerm_storage_account.aci-sa.primary_access_key}"
                    }
                },
                "tags": {
                    "environment": "testing"
                }
            },
            "svg_id": "node_0",
            "simple_name": "azurerm_container_group.myhw",
            "resource_name": "myhw"
        },
        {
            "group": 20000,
            "label": "[root] azurerm_resource_group.aci-rg",
            "type": "azurerm_resource_group",
            "definition": {
                "name": "aci-test",
                "location": "west us"
            },
            "svg_id": "node_1",
            "simple_name": "azurerm_resource_group.aci-rg",
            "resource_name": "aci-rg"
        },
        {
            "group": 20000,
            "label": "[root] azurerm_storage_account.aci-sa",
            "type": "azurerm_storage_account",
            "definition": {
                "name": "acistorageacct",
                "resource_group_name": "${azurerm_resource_group.aci-rg.name}",
                "location": "${azurerm_resource_group.aci-rg.location}",
                "account_tier": "Standard",
                "account_replication_type": "LRS"
            },
            "svg_id": "node_2",
            "simple_name": "azurerm_storage_account.aci-sa",
            "resource_name": "aci-sa"
        },
        {
            "group": 20000,
            "label": "[root] azurerm_storage_share.aci-share",
            "type": "azurerm_storage_share",
            "definition": {
                "name": "aci-test-share",
                "resource_group_name": "${azurerm_resource_group.aci-rg.name}",
                "storage_account_name": "${azurerm_storage_account.aci-sa.name}",
                "quota": 50
            },
            "svg_id": "node_3",
            "simple_name": "azurerm_storage_share.aci-share",
            "resource_name": "aci-share"
        },
        {
            "group": 20000,
            "label": "[root] provider.azurerm",
            "type": "provider",
            "definition": "",
            "svg_id": "node_4",
            "simple_name": "provider.azurerm",
            "resource_name": "azurerm"
        },
        {
            "group": 20000,
            "label": "[root] meta.count-boundary (count boundary fixup)",
            "type": "meta",
            "definition": "",
            "svg_id": "node_5",
            "simple_name": "meta.count-boundary (count boundary fixup)",
            "resource_name": "count-boundary"
        },
        {
            "group": 20000,
            "label": "[root] provider.azurerm (close)",
            "type": "provider",
            "definition": "",
            "svg_id": "node_6",
            "simple_name": "provider.azurerm (close)",
            "resource_name": "azurerm"
        },
        {
            "group": 20000,
            "label": "[root] root",
            "type": "",
            "definition": "",
            "svg_id": "node_7",
            "simple_name": "root",
            "resource_name": ""
        }
    ],
    "edges": [
        {
            "source": "[root] azurerm_container_group.myhw",
            "target": "[root] azurerm_storage_share.aci-share",
            "svg_id": "edge_0"
        },
        {
            "source": "[root] azurerm_resource_group.aci-rg",
            "target": "[root] provider.azurerm",
            "svg_id": "edge_1"
        },
        {
            "source": "[root] azurerm_storage_account.aci-sa",
            "target": "[root] azurerm_resource_group.aci-rg",
            "svg_id": "edge_2"
        },
        {
            "source": "[root] azurerm_storage_share.aci-share",
            "target": "[root] azurerm_storage_account.aci-sa",
            "svg_id": "edge_3"
        },
        {
            "source": "[root] meta.count-boundary (count boundary fixup)",
            "target": "[root] azurerm_container_group.myhw",
            "svg_id": "edge_4"
        },
        {
            "source": "[root] provider.azurerm (close)",
            "target": "[root] azurerm_container_group.myhw",
            "svg_id": "edge_5"
        },
        {
            "source": "[root] root",
            "target": "[root] meta.count-boundary (count boundary fixup)",
            "svg_id": "edge_6"
        },
        {
            "source": "[root] root",
            "target": "[root] provider.azurerm (close)",
            "svg_id": "edge_7"
        }
    ]
}
