{
    "nodes": [
        {
            "label": "[root] azurerm_resource_group.rg",
            "svg_id": "node_0",
            "type": "azurerm_resource_group",
            "resource_name": "rg",
            "group": 20000,
            "simple_name": "azurerm_resource_group.rg",
            "definition": {
                "name": "${var.resource_group}",
                "location": "${var.location}"
            }
        },
        {
            "label": "[root] azurerm_sql_database.db",
            "svg_id": "node_1",
            "type": "azurerm_sql_database",
            "resource_name": "db",
            "group": 20000,
            "simple_name": "azurerm_sql_database.db",
            "definition": {
                "name": "${var.db_name}",
                "resource_group_name": "${azurerm_resource_group.rg.name}",
                "location": "${var.location}",
                "edition": "${var.db_edition}",
                "collation": "SQL_Latin1_General_CP1_CI_AS",
                "server_name": "${azurerm_sql_server.server.name}",
                "create_mode": "Default",
                "requested_service_objective_name": "Basic"
            }
        },
        {
            "label": "[root] azurerm_sql_firewall_rule.fw",
            "svg_id": "node_2",
            "type": "azurerm_sql_firewall_rule",
            "resource_name": "fw",
            "group": 20000,
            "simple_name": "azurerm_sql_firewall_rule.fw",
            "definition": {
                "name": "firewallrules",
                "resource_group_name": "${azurerm_resource_group.rg.name}",
                "server_name": "${azurerm_sql_server.server.name}",
                "start_ip_address": "${var.start_ip_address}",
                "end_ip_address": "${var.end_ip_address}"
            }
        },
        {
            "label": "[root] azurerm_sql_server.server",
            "svg_id": "node_3",
            "type": "azurerm_sql_server",
            "resource_name": "server",
            "group": 20000,
            "simple_name": "azurerm_sql_server.server",
            "definition": {
                "name": "${var.resource_group}-sqlsvr",
                "resource_group_name": "${azurerm_resource_group.rg.name}",
                "location": "${var.location}",
                "version": "12.0",
                "administrator_login": "${var.sql_admin_username}",
                "administrator_login_password": "${var.sql_password}"
            }
        },
        {
            "label": "[root] provider.azurerm",
            "svg_id": "node_4",
            "type": "provider",
            "resource_name": "azurerm",
            "group": 20000,
            "simple_name": "provider.azurerm",
            "definition": ""
        },
        {
            "label": "[root] var.location",
            "svg_id": "node_5",
            "type": "var",
            "resource_name": "location",
            "group": 20000,
            "simple_name": "var.location",
            "definition": {
                "description": "The location/region where the database and server are created. Changing this forces a new resource to be created."
            }
        },
        {
            "label": "[root] var.resource_group",
            "svg_id": "node_6",
            "type": "var",
            "resource_name": "resource_group",
            "group": 20000,
            "simple_name": "var.resource_group",
            "definition": {
                "description": "The name of the resource group in which to create the database."
            }
        },
        {
            "label": "[root] var.db_edition",
            "svg_id": "node_7",
            "type": "var",
            "resource_name": "db_edition",
            "group": 20000,
            "simple_name": "var.db_edition",
            "definition": {
                "description": "The edition of the database to be created.",
                "default": "Basic"
            }
        },
        {
            "label": "[root] var.db_name",
            "svg_id": "node_8",
            "type": "var",
            "resource_name": "db_name",
            "group": 20000,
            "simple_name": "var.db_name",
            "definition": {
                "description": "The name of the database to be created."
            }
        },
        {
            "label": "[root] var.end_ip_address",
            "svg_id": "node_9",
            "type": "var",
            "resource_name": "end_ip_address",
            "group": 20000,
            "simple_name": "var.end_ip_address",
            "definition": {
                "description": "Defines the end IP address used in your database firewall rule.",
                "default": "0.0.0.0"
            }
        },
        {
            "label": "[root] var.start_ip_address",
            "svg_id": "node_10",
            "type": "var",
            "resource_name": "start_ip_address",
            "group": 20000,
            "simple_name": "var.start_ip_address",
            "definition": {
                "description": "Defines the start IP address used in your database firewall rule.",
                "default": "0.0.0.0"
            }
        },
        {
            "label": "[root] var.sql_admin_username",
            "svg_id": "node_11",
            "type": "var",
            "resource_name": "sql_admin_username",
            "group": 20000,
            "simple_name": "var.sql_admin_username",
            "definition": {
                "description": "The administrator username of the SQL Server."
            }
        },
        {
            "label": "[root] var.sql_password",
            "svg_id": "node_12",
            "type": "var",
            "resource_name": "sql_password",
            "group": 20000,
            "simple_name": "var.sql_password",
            "definition": {
                "description": "The administrator password of the SQL Server."
            }
        },
        {
            "label": "[root] meta.count-boundary (count boundary fixup)",
            "svg_id": "node_13",
            "type": "meta",
            "resource_name": "count-boundary",
            "group": 20000,
            "simple_name": "meta.count-boundary (count boundary fixup)",
            "definition": ""
        },
        {
            "label": "[root] output.connection_string",
            "svg_id": "node_14",
            "type": "output",
            "resource_name": "connection_string",
            "group": 20000,
            "simple_name": "output.connection_string",
            "definition": {
                "value": "Server=tcp:${azurerm_sql_server.server.fully_qualified_domain_name},1433;Initial Catalog=${azurerm_sql_database.db.name};Persist Security Info=False;User ID=${azurerm_sql_server.server.administrator_login};Password=${azurerm_sql_server.server.administrator_login_password};MultipleActiveResultSets=False;Encrypt=True;TrustServerCertificate=False;Connection Timeout=30;"
            }
        },
        {
            "label": "[root] output.database_name",
            "svg_id": "node_15",
            "type": "output",
            "resource_name": "database_name",
            "group": 20000,
            "simple_name": "output.database_name",
            "definition": {
                "value": "${azurerm_sql_database.db.name}"
            }
        },
        {
            "label": "[root] output.sql_server_fqdn",
            "svg_id": "node_16",
            "type": "output",
            "resource_name": "sql_server_fqdn",
            "group": 20000,
            "simple_name": "output.sql_server_fqdn",
            "definition": {
                "value": "${azurerm_sql_server.server.fully_qualified_domain_name}"
            }
        },
        {
            "label": "[root] output.sql_server_location",
            "svg_id": "node_17",
            "type": "output",
            "resource_name": "sql_server_location",
            "group": 20000,
            "simple_name": "output.sql_server_location",
            "definition": {
                "value": "${azurerm_sql_server.server.location}"
            }
        },
        {
            "label": "[root] output.sql_server_name",
            "svg_id": "node_18",
            "type": "output",
            "resource_name": "sql_server_name",
            "group": 20000,
            "simple_name": "output.sql_server_name",
            "definition": {
                "value": "${azurerm_sql_server.server.name}"
            }
        },
        {
            "label": "[root] output.sql_server_version",
            "svg_id": "node_19",
            "type": "output",
            "resource_name": "sql_server_version",
            "group": 20000,
            "simple_name": "output.sql_server_version",
            "definition": {
                "value": "${azurerm_sql_server.server.version}"
            }
        },
        {
            "label": "[root] provider.azurerm (close)",
            "svg_id": "node_20",
            "type": "provider",
            "resource_name": "azurerm",
            "group": 20000,
            "simple_name": "provider.azurerm (close)",
            "definition": ""
        },
        {
            "label": "[root] root",
            "svg_id": "node_21",
            "type": "",
            "resource_name": "",
            "group": 20000,
            "simple_name": "root",
            "definition": ""
        }
    ],
    "edges": [
        {
            "source": "[root] azurerm_resource_group.rg",
            "svg_id": "edge_0",
            "target": "[root] provider.azurerm"
        },
        {
            "source": "[root] azurerm_resource_group.rg",
            "svg_id": "edge_1",
            "target": "[root] var.location"
        },
        {
            "source": "[root] azurerm_resource_group.rg",
            "svg_id": "edge_2",
            "target": "[root] var.resource_group"
        },
        {
            "source": "[root] azurerm_sql_database.db",
            "svg_id": "edge_3",
            "target": "[root] azurerm_sql_server.server"
        },
        {
            "source": "[root] azurerm_sql_database.db",
            "svg_id": "edge_4",
            "target": "[root] var.db_edition"
        },
        {
            "source": "[root] azurerm_sql_database.db",
            "svg_id": "edge_5",
            "target": "[root] var.db_name"
        },
        {
            "source": "[root] azurerm_sql_firewall_rule.fw",
            "svg_id": "edge_6",
            "target": "[root] azurerm_sql_server.server"
        },
        {
            "source": "[root] azurerm_sql_firewall_rule.fw",
            "svg_id": "edge_7",
            "target": "[root] var.end_ip_address"
        },
        {
            "source": "[root] azurerm_sql_firewall_rule.fw",
            "svg_id": "edge_8",
            "target": "[root] var.start_ip_address"
        },
        {
            "source": "[root] azurerm_sql_server.server",
            "svg_id": "edge_9",
            "target": "[root] azurerm_resource_group.rg"
        },
        {
            "source": "[root] azurerm_sql_server.server",
            "svg_id": "edge_10",
            "target": "[root] var.sql_admin_username"
        },
        {
            "source": "[root] azurerm_sql_server.server",
            "svg_id": "edge_11",
            "target": "[root] var.sql_password"
        },
        {
            "source": "[root] meta.count-boundary (count boundary fixup)",
            "svg_id": "edge_12",
            "target": "[root] azurerm_sql_firewall_rule.fw"
        },
        {
            "source": "[root] meta.count-boundary (count boundary fixup)",
            "svg_id": "edge_13",
            "target": "[root] output.connection_string"
        },
        {
            "source": "[root] meta.count-boundary (count boundary fixup)",
            "svg_id": "edge_14",
            "target": "[root] output.database_name"
        },
        {
            "source": "[root] meta.count-boundary (count boundary fixup)",
            "svg_id": "edge_15",
            "target": "[root] output.sql_server_fqdn"
        },
        {
            "source": "[root] meta.count-boundary (count boundary fixup)",
            "svg_id": "edge_16",
            "target": "[root] output.sql_server_location"
        },
        {
            "source": "[root] meta.count-boundary (count boundary fixup)",
            "svg_id": "edge_17",
            "target": "[root] output.sql_server_name"
        },
        {
            "source": "[root] meta.count-boundary (count boundary fixup)",
            "svg_id": "edge_18",
            "target": "[root] output.sql_server_version"
        },
        {
            "source": "[root] output.connection_string",
            "svg_id": "edge_19",
            "target": "[root] azurerm_sql_database.db"
        },
        {
            "source": "[root] output.database_name",
            "svg_id": "edge_20",
            "target": "[root] azurerm_sql_database.db"
        },
        {
            "source": "[root] output.sql_server_fqdn",
            "svg_id": "edge_21",
            "target": "[root] azurerm_sql_server.server"
        },
        {
            "source": "[root] output.sql_server_location",
            "svg_id": "edge_22",
            "target": "[root] azurerm_sql_server.server"
        },
        {
            "source": "[root] output.sql_server_name",
            "svg_id": "edge_23",
            "target": "[root] azurerm_sql_server.server"
        },
        {
            "source": "[root] output.sql_server_version",
            "svg_id": "edge_24",
            "target": "[root] azurerm_sql_server.server"
        },
        {
            "source": "[root] provider.azurerm (close)",
            "svg_id": "edge_25",
            "target": "[root] azurerm_sql_database.db"
        },
        {
            "source": "[root] provider.azurerm (close)",
            "svg_id": "edge_26",
            "target": "[root] azurerm_sql_firewall_rule.fw"
        },
        {
            "source": "[root] root",
            "svg_id": "edge_27",
            "target": "[root] meta.count-boundary (count boundary fixup)"
        },
        {
            "source": "[root] root",
            "svg_id": "edge_28",
            "target": "[root] provider.azurerm (close)"
        }
    ]
}
