{
    "nodes": [
        {
            "label": "[root] google_compute_disk.mysql",
            "resource_name": "mysql",
            "simple_name": "google_compute_disk.mysql",
            "definition": {
                "name": "wordpress-mysql",
                "type": "pd-ssd",
                "zone": "${var.gcp_zone}",
                "size": 20
            },
            "type": "google_compute_disk",
            "group": 20000,
            "svg_id": "node_0"
        },
        {
            "label": "[root] google_compute_disk.wordpress",
            "resource_name": "wordpress",
            "simple_name": "google_compute_disk.wordpress",
            "definition": {
                "name": "wordpress-frontend",
                "type": "pd-ssd",
                "zone": "${var.gcp_zone}",
                "size": 20
            },
            "type": "google_compute_disk",
            "group": 20000,
            "svg_id": "node_1"
        },
        {
            "label": "[root] kubernetes_persistent_volume.mysql",
            "resource_name": "mysql",
            "simple_name": "kubernetes_persistent_volume.mysql",
            "definition": {
                "metadata": {
                    "name": "mysql-pv"
                },
                "spec": {
                    "capacity": {
                        "storage": "20Gi"
                    },
                    "access_modes": [
                        "ReadWriteOnce"
                    ],
                    "persistent_volume_source": {
                        "gce_persistent_disk": {
                            "pd_name": "${google_compute_disk.mysql.name}",
                            "fs_type": "ext4"
                        }
                    }
                }
            },
            "type": "kubernetes_persistent_volume",
            "group": 20000,
            "svg_id": "node_2"
        },
        {
            "label": "[root] kubernetes_persistent_volume.wordpress",
            "resource_name": "wordpress",
            "simple_name": "kubernetes_persistent_volume.wordpress",
            "definition": {
                "metadata": {
                    "name": "wordpress-pv"
                },
                "spec": {
                    "capacity": {
                        "storage": "20Gi"
                    },
                    "access_modes": [
                        "ReadWriteOnce"
                    ],
                    "persistent_volume_source": {
                        "gce_persistent_disk": {
                            "pd_name": "${google_compute_disk.wordpress.name}",
                            "fs_type": "ext4"
                        }
                    }
                }
            },
            "type": "kubernetes_persistent_volume",
            "group": 20000,
            "svg_id": "node_3"
        },
        {
            "label": "[root] kubernetes_persistent_volume_claim.mysql",
            "resource_name": "mysql",
            "simple_name": "kubernetes_persistent_volume_claim.mysql",
            "definition": {
                "metadata": {
                    "name": "mysql-pv-claim",
                    "labels": {
                        "app": "wordpress"
                    }
                },
                "spec": {
                    "access_modes": [
                        "ReadWriteOnce"
                    ],
                    "resources": {
                        "requests": {
                            "storage": "20Gi"
                        }
                    },
                    "volume_name": "${kubernetes_persistent_volume.mysql.metadata.0.name}"
                }
            },
            "type": "kubernetes_persistent_volume_claim",
            "group": 20000,
            "svg_id": "node_4"
        },
        {
            "label": "[root] kubernetes_persistent_volume_claim.wordpress",
            "resource_name": "wordpress",
            "simple_name": "kubernetes_persistent_volume_claim.wordpress",
            "definition": {
                "metadata": {
                    "name": "wp-pv-claim",
                    "labels": {
                        "app": "wordpress"
                    }
                },
                "spec": {
                    "access_modes": [
                        "ReadWriteOnce"
                    ],
                    "resources": {
                        "requests": {
                            "storage": "20Gi"
                        }
                    },
                    "volume_name": "${kubernetes_persistent_volume.wordpress.metadata.0.name}"
                }
            },
            "type": "kubernetes_persistent_volume_claim",
            "group": 20000,
            "svg_id": "node_5"
        },
        {
            "label": "[root] kubernetes_replication_controller.mysql",
            "resource_name": "mysql",
            "simple_name": "kubernetes_replication_controller.mysql",
            "definition": {
                "metadata": {
                    "name": "wordpress-mysql",
                    "labels": {
                        "app": "wordpress"
                    }
                },
                "spec": {
                    "selector": {
                        "app": "wordpress",
                        "tier": "mysql"
                    },
                    "template": {
                        "container": {
                            "image": "mysql:${var.mysql_version}",
                            "name": "mysql",
                            "env": {
                                "name": "MYSQL_ROOT_PASSWORD",
                                "value_from": {
                                    "secret_key_ref": {
                                        "name": "${kubernetes_secret.mysql.metadata.0.name}",
                                        "key": "password"
                                    }
                                }
                            },
                            "port": {
                                "container_port": 3306,
                                "name": "mysql"
                            },
                            "volume_mount": {
                                "name": "mysql-persistent-storage",
                                "mount_path": "/var/lib/mysql"
                            }
                        },
                        "volume": {
                            "name": "mysql-persistent-storage",
                            "persistent_volume_claim": {
                                "claim_name": "${kubernetes_persistent_volume_claim.mysql.metadata.0.name}"
                            }
                        }
                    }
                }
            },
            "type": "kubernetes_replication_controller",
            "group": 20000,
            "svg_id": "node_6"
        },
        {
            "label": "[root] kubernetes_replication_controller.wordpress",
            "resource_name": "wordpress",
            "simple_name": "kubernetes_replication_controller.wordpress",
            "definition": {
                "metadata": {
                    "name": "wordpress",
                    "labels": {
                        "app": "wordpress"
                    }
                },
                "spec": {
                    "selector": {
                        "app": "wordpress",
                        "tier": "frontend"
                    },
                    "template": {
                        "container": {
                            "image": "wordpress:${var.wordpress_version}-apache",
                            "name": "wordpress",
                            "env": [
                                {
                                    "name": "WORDPRESS_DB_HOST",
                                    "value": "wordpress-mysql"
                                },
                                {
                                    "name": "WORDPRESS_DB_PASSWORD",
                                    "value_from": {
                                        "secret_key_ref": {
                                            "name": "${kubernetes_secret.mysql.metadata.0.name}",
                                            "key": "password"
                                        }
                                    }
                                }
                            ],
                            "port": {
                                "container_port": 80,
                                "name": "wordpress"
                            },
                            "volume_mount": {
                                "name": "wordpress-persistent-storage",
                                "mount_path": "/var/www/html"
                            }
                        },
                        "volume": {
                            "name": "wordpress-persistent-storage",
                            "persistent_volume_claim": {
                                "claim_name": "${kubernetes_persistent_volume_claim.wordpress.metadata.0.name}"
                            }
                        }
                    }
                }
            },
            "type": "kubernetes_replication_controller",
            "group": 20000,
            "svg_id": "node_7"
        },
        {
            "label": "[root] kubernetes_secret.mysql",
            "resource_name": "mysql",
            "simple_name": "kubernetes_secret.mysql",
            "definition": {
                "metadata": {
                    "name": "mysql-pass"
                },
                "data": {
                    "password": "${var.mysql_password}"
                }
            },
            "type": "kubernetes_secret",
            "group": 20000,
            "svg_id": "node_8"
        },
        {
            "label": "[root] kubernetes_service.mysql",
            "resource_name": "mysql",
            "simple_name": "kubernetes_service.mysql",
            "definition": {
                "metadata": {
                    "name": "wordpress-mysql",
                    "labels": {
                        "app": "wordpress"
                    }
                },
                "spec": {
                    "port": {
                        "port": 3306,
                        "target_port": 3306
                    },
                    "selector": {
                        "app": "wordpress",
                        "tier": "${kubernetes_replication_controller.mysql.spec.0.selector.tier}"
                    },
                    "cluster_ip": "None"
                }
            },
            "type": "kubernetes_service",
            "group": 20000,
            "svg_id": "node_9"
        },
        {
            "label": "[root] kubernetes_service.wordpress",
            "resource_name": "wordpress",
            "simple_name": "kubernetes_service.wordpress",
            "definition": {
                "metadata": {
                    "name": "wordpress",
                    "labels": {
                        "app": "wordpress"
                    }
                },
                "spec": {
                    "port": {
                        "port": 80,
                        "target_port": 80
                    },
                    "selector": {
                        "app": "wordpress",
                        "tier": "${kubernetes_replication_controller.wordpress.spec.0.selector.tier}"
                    },
                    "type": "LoadBalancer"
                }
            },
            "type": "kubernetes_service",
            "group": 20000,
            "svg_id": "node_10"
        },
        {
            "label": "[root] provider.google",
            "resource_name": "google",
            "simple_name": "provider.google",
            "definition": {
                "region": "${var.gcp_region}"
            },
            "type": "provider",
            "group": 20000,
            "svg_id": "node_11"
        },
        {
            "label": "[root] provider.kubernetes",
            "resource_name": "kubernetes",
            "simple_name": "provider.kubernetes",
            "definition": "",
            "type": "provider",
            "group": 20000,
            "svg_id": "node_12"
        },
        {
            "label": "[root] var.gcp_zone",
            "resource_name": "gcp_zone",
            "simple_name": "var.gcp_zone",
            "definition": {},
            "type": "var",
            "group": 20000,
            "svg_id": "node_13"
        },
        {
            "label": "[root] var.mysql_version",
            "resource_name": "mysql_version",
            "simple_name": "var.mysql_version",
            "definition": {
                "default": "5.6"
            },
            "type": "var",
            "group": 20000,
            "svg_id": "node_14"
        },
        {
            "label": "[root] var.wordpress_version",
            "resource_name": "wordpress_version",
            "simple_name": "var.wordpress_version",
            "definition": {
                "default": "4.7.3"
            },
            "type": "var",
            "group": 20000,
            "svg_id": "node_15"
        },
        {
            "label": "[root] var.mysql_password",
            "resource_name": "mysql_password",
            "simple_name": "var.mysql_password",
            "definition": {},
            "type": "var",
            "group": 20000,
            "svg_id": "node_16"
        },
        {
            "label": "[root] meta.count-boundary (count boundary fixup)",
            "resource_name": "count-boundary",
            "simple_name": "meta.count-boundary (count boundary fixup)",
            "definition": "",
            "type": "meta",
            "group": 20000,
            "svg_id": "node_17"
        },
        {
            "label": "[root] output.lb_ip",
            "resource_name": "lb_ip",
            "simple_name": "output.lb_ip",
            "definition": {
                "value": "${kubernetes_service.wordpress.load_balancer_ingress.0.ip}"
            },
            "type": "output",
            "group": 20000,
            "svg_id": "node_18"
        },
        {
            "label": "[root] provider.google (close)",
            "resource_name": "google",
            "simple_name": "provider.google (close)",
            "definition": {
                "region": "${var.gcp_region}"
            },
            "type": "provider",
            "group": 20000,
            "svg_id": "node_19"
        },
        {
            "label": "[root] var.gcp_region",
            "resource_name": "gcp_region",
            "simple_name": "var.gcp_region",
            "definition": {},
            "type": "var",
            "group": 20000,
            "svg_id": "node_20"
        },
        {
            "label": "[root] provider.kubernetes (close)",
            "resource_name": "kubernetes",
            "simple_name": "provider.kubernetes (close)",
            "definition": "",
            "type": "provider",
            "group": 20000,
            "svg_id": "node_21"
        },
        {
            "label": "[root] root",
            "resource_name": "",
            "simple_name": "root",
            "definition": "",
            "type": "",
            "group": 20000,
            "svg_id": "node_22"
        }
    ],
    "edges": [
        {
            "source": "[root] google_compute_disk.mysql",
            "svg_id": "edge_0",
            "target": "[root] provider.google"
        },
        {
            "source": "[root] google_compute_disk.mysql",
            "svg_id": "edge_1",
            "target": "[root] var.gcp_zone"
        },
        {
            "source": "[root] google_compute_disk.wordpress",
            "svg_id": "edge_2",
            "target": "[root] provider.google"
        },
        {
            "source": "[root] google_compute_disk.wordpress",
            "svg_id": "edge_3",
            "target": "[root] var.gcp_zone"
        },
        {
            "source": "[root] kubernetes_persistent_volume.mysql",
            "svg_id": "edge_4",
            "target": "[root] google_compute_disk.mysql"
        },
        {
            "source": "[root] kubernetes_persistent_volume.mysql",
            "svg_id": "edge_5",
            "target": "[root] provider.kubernetes"
        },
        {
            "source": "[root] kubernetes_persistent_volume.wordpress",
            "svg_id": "edge_6",
            "target": "[root] google_compute_disk.wordpress"
        },
        {
            "source": "[root] kubernetes_persistent_volume.wordpress",
            "svg_id": "edge_7",
            "target": "[root] provider.kubernetes"
        },
        {
            "source": "[root] kubernetes_persistent_volume_claim.mysql",
            "svg_id": "edge_8",
            "target": "[root] kubernetes_persistent_volume.mysql"
        },
        {
            "source": "[root] kubernetes_persistent_volume_claim.wordpress",
            "svg_id": "edge_9",
            "target": "[root] kubernetes_persistent_volume.wordpress"
        },
        {
            "source": "[root] kubernetes_replication_controller.mysql",
            "svg_id": "edge_10",
            "target": "[root] kubernetes_persistent_volume_claim.mysql"
        },
        {
            "source": "[root] kubernetes_replication_controller.mysql",
            "svg_id": "edge_11",
            "target": "[root] kubernetes_secret.mysql"
        },
        {
            "source": "[root] kubernetes_replication_controller.mysql",
            "svg_id": "edge_12",
            "target": "[root] var.mysql_version"
        },
        {
            "source": "[root] kubernetes_replication_controller.wordpress",
            "svg_id": "edge_13",
            "target": "[root] kubernetes_persistent_volume_claim.wordpress"
        },
        {
            "source": "[root] kubernetes_replication_controller.wordpress",
            "svg_id": "edge_14",
            "target": "[root] kubernetes_secret.mysql"
        },
        {
            "source": "[root] kubernetes_replication_controller.wordpress",
            "svg_id": "edge_15",
            "target": "[root] var.wordpress_version"
        },
        {
            "source": "[root] kubernetes_secret.mysql",
            "svg_id": "edge_16",
            "target": "[root] provider.kubernetes"
        },
        {
            "source": "[root] kubernetes_secret.mysql",
            "svg_id": "edge_17",
            "target": "[root] var.mysql_password"
        },
        {
            "source": "[root] kubernetes_service.mysql",
            "svg_id": "edge_18",
            "target": "[root] kubernetes_replication_controller.mysql"
        },
        {
            "source": "[root] kubernetes_service.wordpress",
            "svg_id": "edge_19",
            "target": "[root] kubernetes_replication_controller.wordpress"
        },
        {
            "source": "[root] meta.count-boundary (count boundary fixup)",
            "svg_id": "edge_20",
            "target": "[root] kubernetes_service.mysql"
        },
        {
            "source": "[root] meta.count-boundary (count boundary fixup)",
            "svg_id": "edge_21",
            "target": "[root] output.lb_ip"
        },
        {
            "source": "[root] output.lb_ip",
            "svg_id": "edge_22",
            "target": "[root] kubernetes_service.wordpress"
        },
        {
            "source": "[root] provider.google (close)",
            "svg_id": "edge_23",
            "target": "[root] google_compute_disk.mysql"
        },
        {
            "source": "[root] provider.google (close)",
            "svg_id": "edge_24",
            "target": "[root] google_compute_disk.wordpress"
        },
        {
            "source": "[root] provider.google",
            "svg_id": "edge_25",
            "target": "[root] var.gcp_region"
        },
        {
            "source": "[root] provider.kubernetes (close)",
            "svg_id": "edge_26",
            "target": "[root] kubernetes_service.mysql"
        },
        {
            "source": "[root] provider.kubernetes (close)",
            "svg_id": "edge_27",
            "target": "[root] kubernetes_service.wordpress"
        },
        {
            "source": "[root] root",
            "svg_id": "edge_28",
            "target": "[root] meta.count-boundary (count boundary fixup)"
        },
        {
            "source": "[root] root",
            "svg_id": "edge_29",
            "target": "[root] provider.google (close)"
        },
        {
            "source": "[root] root",
            "svg_id": "edge_30",
            "target": "[root] provider.kubernetes (close)"
        }
    ]
}
