{
    "nodes": [
        {
            "definition": {
                "name": "${var.hostname}-datadisk",
                "location": "${var.location}",
                "resource_group_name": "${azurerm_resource_group.rg.name}",
                "storage_account_type": "Standard_LRS",
                "create_option": "Empty",
                "disk_size_gb": "1023"
            },
            "svg_id": "node_0",
            "simple_name": "azurerm_managed_disk.datadisk",
            "type": "azurerm_managed_disk",
            "group": 20000,
            "resource_name": "datadisk",
            "label": "[root] azurerm_managed_disk.datadisk"
        },
        {
            "definition": {
                "name": "${var.rg_prefix}nic",
                "location": "${var.location}",
                "resource_group_name": "${azurerm_resource_group.rg.name}",
                "ip_configuration": {
                    "name": "${var.rg_prefix}ipconfig",
                    "subnet_id": "${azurerm_subnet.subnet.id}",
                    "private_ip_address_allocation": "Dynamic",
                    "public_ip_address_id": "${azurerm_public_ip.pip.id}"
                }
            },
            "svg_id": "node_1",
            "simple_name": "azurerm_network_interface.nic",
            "type": "azurerm_network_interface",
            "group": 20000,
            "resource_name": "nic",
            "label": "[root] azurerm_network_interface.nic"
        },
        {
            "definition": {
                "name": "${var.rg_prefix}-ip",
                "location": "${var.location}",
                "resource_group_name": "${azurerm_resource_group.rg.name}",
                "public_ip_address_allocation": "Dynamic",
                "domain_name_label": "${var.dns_name}"
            },
            "svg_id": "node_2",
            "simple_name": "azurerm_public_ip.pip",
            "type": "azurerm_public_ip",
            "group": 20000,
            "resource_name": "pip",
            "label": "[root] azurerm_public_ip.pip"
        },
        {
            "definition": {
                "name": "${var.resource_group}",
                "location": "${var.location}"
            },
            "svg_id": "node_3",
            "simple_name": "azurerm_resource_group.rg",
            "type": "azurerm_resource_group",
            "group": 20000,
            "resource_name": "rg",
            "label": "[root] azurerm_resource_group.rg"
        },
        {
            "definition": {
                "name": "${var.dns_name}stor",
                "location": "${var.location}",
                "resource_group_name": "${azurerm_resource_group.rg.name}",
                "account_tier": "${var.storage_account_tier}",
                "account_replication_type": "${var.storage_replication_type}"
            },
            "svg_id": "node_4",
            "simple_name": "azurerm_storage_account.stor",
            "type": "azurerm_storage_account",
            "group": 20000,
            "resource_name": "stor",
            "label": "[root] azurerm_storage_account.stor"
        },
        {
            "definition": {
                "name": "${var.rg_prefix}subnet",
                "virtual_network_name": "${azurerm_virtual_network.vnet.name}",
                "resource_group_name": "${azurerm_resource_group.rg.name}",
                "address_prefix": "${var.subnet_prefix}"
            },
            "svg_id": "node_5",
            "simple_name": "azurerm_subnet.subnet",
            "type": "azurerm_subnet",
            "group": 20000,
            "resource_name": "subnet",
            "label": "[root] azurerm_subnet.subnet"
        },
        {
            "definition": {
                "name": "${var.rg_prefix}vm",
                "location": "${var.location}",
                "resource_group_name": "${azurerm_resource_group.rg.name}",
                "vm_size": "${var.vm_size}",
                "network_interface_ids": [
                    "${azurerm_network_interface.nic.id}"
                ],
                "storage_image_reference": {
                    "publisher": "${var.image_publisher}",
                    "offer": "${var.image_offer}",
                    "sku": "${var.image_sku}",
                    "version": "${var.image_version}"
                },
                "storage_os_disk": {
                    "name": "${var.hostname}-osdisk",
                    "managed_disk_type": "Standard_LRS",
                    "caching": "ReadWrite",
                    "create_option": "FromImage"
                },
                "storage_data_disk": {
                    "name": "${var.hostname}-datadisk",
                    "managed_disk_id": "${azurerm_managed_disk.datadisk.id}",
                    "managed_disk_type": "Standard_LRS",
                    "disk_size_gb": "1023",
                    "create_option": "Attach",
                    "lun": 0
                },
                "os_profile": {
                    "computer_name": "${var.hostname}",
                    "admin_username": "${var.admin_username}",
                    "admin_password": "${var.admin_password}"
                },
                "os_profile_linux_config": {
                    "disable_password_authentication": false
                },
                "boot_diagnostics": {
                    "enabled": true,
                    "storage_uri": "${azurerm_storage_account.stor.primary_blob_endpoint}"
                }
            },
            "svg_id": "node_6",
            "simple_name": "azurerm_virtual_machine.vm",
            "type": "azurerm_virtual_machine",
            "group": 20000,
            "resource_name": "vm",
            "label": "[root] azurerm_virtual_machine.vm"
        },
        {
            "definition": {
                "name": "${var.virtual_network_name}",
                "location": "${var.location}",
                "address_space": [
                    "${var.address_space}"
                ],
                "resource_group_name": "${azurerm_resource_group.rg.name}"
            },
            "svg_id": "node_7",
            "simple_name": "azurerm_virtual_network.vnet",
            "type": "azurerm_virtual_network",
            "group": 20000,
            "resource_name": "vnet",
            "label": "[root] azurerm_virtual_network.vnet"
        },
        {
            "definition": "",
            "svg_id": "node_8",
            "simple_name": "provider.azurerm",
            "type": "provider",
            "group": 20000,
            "resource_name": "azurerm",
            "label": "[root] provider.azurerm"
        },
        {
            "definition": {
                "description": "VM name referenced also in storage-related names."
            },
            "svg_id": "node_9",
            "simple_name": "var.hostname",
            "type": "var",
            "group": 20000,
            "resource_name": "hostname",
            "label": "[root] var.hostname"
        },
        {
            "definition": {
                "description": " Label for the Domain Name. Will be used to make up the FQDN. If a domain name label is specified, an A DNS record is created for the public IP in the Microsoft Azure DNS system."
            },
            "svg_id": "node_10",
            "simple_name": "var.dns_name",
            "type": "var",
            "group": 20000,
            "resource_name": "dns_name",
            "label": "[root] var.dns_name"
        },
        {
            "definition": {
                "description": "The shortened abbreviation to represent your resource group that will go on the front of some resources.",
                "default": "rg"
            },
            "svg_id": "node_11",
            "simple_name": "var.rg_prefix",
            "type": "var",
            "group": 20000,
            "resource_name": "rg_prefix",
            "label": "[root] var.rg_prefix"
        },
        {
            "definition": {
                "description": "The location/region where the virtual network is created. Changing this forces a new resource to be created.",
                "default": "southcentralus"
            },
            "svg_id": "node_12",
            "simple_name": "var.location",
            "type": "var",
            "group": 20000,
            "resource_name": "location",
            "label": "[root] var.location"
        },
        {
            "definition": {
                "description": "The name of the resource group in which to create the virtual network."
            },
            "svg_id": "node_13",
            "simple_name": "var.resource_group",
            "type": "var",
            "group": 20000,
            "resource_name": "resource_group",
            "label": "[root] var.resource_group"
        },
        {
            "definition": {
                "description": "Defines the Tier of storage account to be created. Valid options are Standard and Premium.",
                "default": "Standard"
            },
            "svg_id": "node_14",
            "simple_name": "var.storage_account_tier",
            "type": "var",
            "group": 20000,
            "resource_name": "storage_account_tier",
            "label": "[root] var.storage_account_tier"
        },
        {
            "definition": {
                "description": "Defines the Replication Type to use for this storage account. Valid options include LRS, GRS etc.",
                "default": "LRS"
            },
            "svg_id": "node_15",
            "simple_name": "var.storage_replication_type",
            "type": "var",
            "group": 20000,
            "resource_name": "storage_replication_type",
            "label": "[root] var.storage_replication_type"
        },
        {
            "definition": {
                "description": "The address prefix to use for the subnet.",
                "default": "10.0.10.0/24"
            },
            "svg_id": "node_16",
            "simple_name": "var.subnet_prefix",
            "type": "var",
            "group": 20000,
            "resource_name": "subnet_prefix",
            "label": "[root] var.subnet_prefix"
        },
        {
            "definition": {
                "description": "administrator password (recommended to disable password auth)"
            },
            "svg_id": "node_17",
            "simple_name": "var.admin_password",
            "type": "var",
            "group": 20000,
            "resource_name": "admin_password",
            "label": "[root] var.admin_password"
        },
        {
            "definition": {
                "description": "administrator user name",
                "default": "vmadmin"
            },
            "svg_id": "node_18",
            "simple_name": "var.admin_username",
            "type": "var",
            "group": 20000,
            "resource_name": "admin_username",
            "label": "[root] var.admin_username"
        },
        {
            "definition": {
                "description": "the name of the offer (az vm image list)",
                "default": "UbuntuServer"
            },
            "svg_id": "node_19",
            "simple_name": "var.image_offer",
            "type": "var",
            "group": 20000,
            "resource_name": "image_offer",
            "label": "[root] var.image_offer"
        },
        {
            "definition": {
                "description": "name of the publisher of the image (az vm image list)",
                "default": "Canonical"
            },
            "svg_id": "node_20",
            "simple_name": "var.image_publisher",
            "type": "var",
            "group": 20000,
            "resource_name": "image_publisher",
            "label": "[root] var.image_publisher"
        },
        {
            "definition": {
                "description": "image sku to apply (az vm image list)",
                "default": "16.04-LTS"
            },
            "svg_id": "node_21",
            "simple_name": "var.image_sku",
            "type": "var",
            "group": 20000,
            "resource_name": "image_sku",
            "label": "[root] var.image_sku"
        },
        {
            "definition": {
                "description": "version of the image to apply (az vm image list)",
                "default": "latest"
            },
            "svg_id": "node_22",
            "simple_name": "var.image_version",
            "type": "var",
            "group": 20000,
            "resource_name": "image_version",
            "label": "[root] var.image_version"
        },
        {
            "definition": {
                "description": "Specifies the size of the virtual machine.",
                "default": "Standard_A0"
            },
            "svg_id": "node_23",
            "simple_name": "var.vm_size",
            "type": "var",
            "group": 20000,
            "resource_name": "vm_size",
            "label": "[root] var.vm_size"
        },
        {
            "definition": {
                "description": "The address space that is used by the virtual network. You can supply more than one address space. Changing this forces a new resource to be created.",
                "default": "10.0.0.0/16"
            },
            "svg_id": "node_24",
            "simple_name": "var.address_space",
            "type": "var",
            "group": 20000,
            "resource_name": "address_space",
            "label": "[root] var.address_space"
        },
        {
            "definition": {
                "description": "The name for the virtual network.",
                "default": "vnet"
            },
            "svg_id": "node_25",
            "simple_name": "var.virtual_network_name",
            "type": "var",
            "group": 20000,
            "resource_name": "virtual_network_name",
            "label": "[root] var.virtual_network_name"
        },
        {
            "definition": "",
            "svg_id": "node_26",
            "simple_name": "meta.count-boundary (count boundary fixup)",
            "type": "meta",
            "group": 20000,
            "resource_name": "count-boundary",
            "label": "[root] meta.count-boundary (count boundary fixup)"
        },
        {
            "definition": {
                "value": "${var.hostname}"
            },
            "svg_id": "node_27",
            "simple_name": "output.hostname",
            "type": "output",
            "group": 20000,
            "resource_name": "hostname",
            "label": "[root] output.hostname"
        },
        {
            "definition": {
                "value": "ssh ${var.admin_username}@${azurerm_public_ip.pip.fqdn}"
            },
            "svg_id": "node_28",
            "simple_name": "output.ssh_command",
            "type": "output",
            "group": 20000,
            "resource_name": "ssh_command",
            "label": "[root] output.ssh_command"
        },
        {
            "definition": {
                "value": "${azurerm_public_ip.pip.fqdn}"
            },
            "svg_id": "node_29",
            "simple_name": "output.vm_fqdn",
            "type": "output",
            "group": 20000,
            "resource_name": "vm_fqdn",
            "label": "[root] output.vm_fqdn"
        },
        {
            "definition": "",
            "svg_id": "node_30",
            "simple_name": "provider.azurerm (close)",
            "type": "provider",
            "group": 20000,
            "resource_name": "azurerm",
            "label": "[root] provider.azurerm (close)"
        },
        {
            "definition": "",
            "svg_id": "node_31",
            "simple_name": "root",
            "type": "",
            "group": 20000,
            "resource_name": "",
            "label": "[root] root"
        }
    ],
    "edges": [
        {
            "target": "[root] azurerm_resource_group.rg",
            "source": "[root] azurerm_managed_disk.datadisk",
            "svg_id": "edge_0"
        },
        {
            "target": "[root] var.hostname",
            "source": "[root] azurerm_managed_disk.datadisk",
            "svg_id": "edge_1"
        },
        {
            "target": "[root] azurerm_public_ip.pip",
            "source": "[root] azurerm_network_interface.nic",
            "svg_id": "edge_2"
        },
        {
            "target": "[root] azurerm_subnet.subnet",
            "source": "[root] azurerm_network_interface.nic",
            "svg_id": "edge_3"
        },
        {
            "target": "[root] azurerm_resource_group.rg",
            "source": "[root] azurerm_public_ip.pip",
            "svg_id": "edge_4"
        },
        {
            "target": "[root] var.dns_name",
            "source": "[root] azurerm_public_ip.pip",
            "svg_id": "edge_5"
        },
        {
            "target": "[root] var.rg_prefix",
            "source": "[root] azurerm_public_ip.pip",
            "svg_id": "edge_6"
        },
        {
            "target": "[root] provider.azurerm",
            "source": "[root] azurerm_resource_group.rg",
            "svg_id": "edge_7"
        },
        {
            "target": "[root] var.location",
            "source": "[root] azurerm_resource_group.rg",
            "svg_id": "edge_8"
        },
        {
            "target": "[root] var.resource_group",
            "source": "[root] azurerm_resource_group.rg",
            "svg_id": "edge_9"
        },
        {
            "target": "[root] azurerm_resource_group.rg",
            "source": "[root] azurerm_storage_account.stor",
            "svg_id": "edge_10"
        },
        {
            "target": "[root] var.dns_name",
            "source": "[root] azurerm_storage_account.stor",
            "svg_id": "edge_11"
        },
        {
            "target": "[root] var.storage_account_tier",
            "source": "[root] azurerm_storage_account.stor",
            "svg_id": "edge_12"
        },
        {
            "target": "[root] var.storage_replication_type",
            "source": "[root] azurerm_storage_account.stor",
            "svg_id": "edge_13"
        },
        {
            "target": "[root] azurerm_virtual_network.vnet",
            "source": "[root] azurerm_subnet.subnet",
            "svg_id": "edge_14"
        },
        {
            "target": "[root] var.rg_prefix",
            "source": "[root] azurerm_subnet.subnet",
            "svg_id": "edge_15"
        },
        {
            "target": "[root] var.subnet_prefix",
            "source": "[root] azurerm_subnet.subnet",
            "svg_id": "edge_16"
        },
        {
            "target": "[root] azurerm_managed_disk.datadisk",
            "source": "[root] azurerm_virtual_machine.vm",
            "svg_id": "edge_17"
        },
        {
            "target": "[root] azurerm_network_interface.nic",
            "source": "[root] azurerm_virtual_machine.vm",
            "svg_id": "edge_18"
        },
        {
            "target": "[root] azurerm_storage_account.stor",
            "source": "[root] azurerm_virtual_machine.vm",
            "svg_id": "edge_19"
        },
        {
            "target": "[root] var.admin_password",
            "source": "[root] azurerm_virtual_machine.vm",
            "svg_id": "edge_20"
        },
        {
            "target": "[root] var.admin_username",
            "source": "[root] azurerm_virtual_machine.vm",
            "svg_id": "edge_21"
        },
        {
            "target": "[root] var.image_offer",
            "source": "[root] azurerm_virtual_machine.vm",
            "svg_id": "edge_22"
        },
        {
            "target": "[root] var.image_publisher",
            "source": "[root] azurerm_virtual_machine.vm",
            "svg_id": "edge_23"
        },
        {
            "target": "[root] var.image_sku",
            "source": "[root] azurerm_virtual_machine.vm",
            "svg_id": "edge_24"
        },
        {
            "target": "[root] var.image_version",
            "source": "[root] azurerm_virtual_machine.vm",
            "svg_id": "edge_25"
        },
        {
            "target": "[root] var.vm_size",
            "source": "[root] azurerm_virtual_machine.vm",
            "svg_id": "edge_26"
        },
        {
            "target": "[root] azurerm_resource_group.rg",
            "source": "[root] azurerm_virtual_network.vnet",
            "svg_id": "edge_27"
        },
        {
            "target": "[root] var.address_space",
            "source": "[root] azurerm_virtual_network.vnet",
            "svg_id": "edge_28"
        },
        {
            "target": "[root] var.virtual_network_name",
            "source": "[root] azurerm_virtual_network.vnet",
            "svg_id": "edge_29"
        },
        {
            "target": "[root] azurerm_virtual_machine.vm",
            "source": "[root] meta.count-boundary (count boundary fixup)",
            "svg_id": "edge_30"
        },
        {
            "target": "[root] output.hostname",
            "source": "[root] meta.count-boundary (count boundary fixup)",
            "svg_id": "edge_31"
        },
        {
            "target": "[root] output.ssh_command",
            "source": "[root] meta.count-boundary (count boundary fixup)",
            "svg_id": "edge_32"
        },
        {
            "target": "[root] output.vm_fqdn",
            "source": "[root] meta.count-boundary (count boundary fixup)",
            "svg_id": "edge_33"
        },
        {
            "target": "[root] var.hostname",
            "source": "[root] output.hostname",
            "svg_id": "edge_34"
        },
        {
            "target": "[root] azurerm_public_ip.pip",
            "source": "[root] output.ssh_command",
            "svg_id": "edge_35"
        },
        {
            "target": "[root] var.admin_username",
            "source": "[root] output.ssh_command",
            "svg_id": "edge_36"
        },
        {
            "target": "[root] azurerm_public_ip.pip",
            "source": "[root] output.vm_fqdn",
            "svg_id": "edge_37"
        },
        {
            "target": "[root] azurerm_virtual_machine.vm",
            "source": "[root] provider.azurerm (close)",
            "svg_id": "edge_38"
        },
        {
            "target": "[root] meta.count-boundary (count boundary fixup)",
            "source": "[root] root",
            "svg_id": "edge_39"
        },
        {
            "target": "[root] provider.azurerm (close)",
            "source": "[root] root",
            "svg_id": "edge_40"
        }
    ]
}
