<?xml version="1.0" encoding="UTF-8" standalone="no"?>
<!DOCTYPE svg PUBLIC "-//W3C//DTD SVG 1.1//EN"
 "http://www.w3.org/Graphics/SVG/1.1/DTD/svg11.dtd">
<!-- Generated by graphviz version 2.40.1 (20161225.0304)
 -->
<!-- Title: %3 Pages: 1 -->
<svg width="516pt" height="548pt"
 viewBox="0.00 0.00 516.00 548.00" xmlns="http://www.w3.org/2000/svg" xmlns:xlink="http://www.w3.org/1999/xlink">
<g id="graph0" class="graph" transform="scale(1 1) rotate(0) translate(4 544)">
<title>%3</title>
<polygon fill="#ffffff" stroke="transparent" points="-4,4 -4,-544 512,-544 512,4 -4,4"/>
<!-- [root] aws_autoscaling_group.web&#45;asg -->
<g id="node_0" class="node">
<title>[root] aws_autoscaling_group.web&#45;asg</title>
<polygon fill="none" stroke="#000000" points="260,-306 260,-321 366,-321 366,-306 260,-306"/>
<text text-anchor="start" x="262.5918" y="-311.6" font-family="courier new" font-size="8.00" fill="#000000">aws_autoscaling_group</text>
<polygon fill="none" stroke="#000000" points="260,-291 260,-306 366,-306 366,-291 260,-291"/>
<text text-anchor="start" x="296.1973" y="-296.6" font-family="courier new" font-size="8.00" fill="#000000">web&#45;asg</text>
</g>
<!-- [root] aws_elb.web&#45;elb -->
<g id="node_1" class="node">
<title>[root] aws_elb.web&#45;elb</title>
<polygon fill="none" stroke="#000000" points="443,-234 443,-249 482,-249 482,-234 443,-234"/>
<text text-anchor="start" x="445.6973" y="-239.6" font-family="courier new" font-size="8.00" fill="#000000">aws_elb</text>
<polygon fill="none" stroke="#000000" points="443,-219 443,-234 482,-234 482,-219 443,-219"/>
<text text-anchor="start" x="445.6973" y="-224.6" font-family="courier new" font-size="8.00" fill="#000000">web&#45;elb</text>
</g>
<!-- [root] aws_autoscaling_group.web&#45;asg&#45;&gt;[root] aws_elb.web&#45;elb -->
<g id="edge_0" class="edge">
<title>[root] aws_autoscaling_group.web&#45;asg&#45;&gt;[root] aws_elb.web&#45;elb</title>
<path fill="none" stroke="#000000" d="M351.2645,-287.9224C371.1329,-278.4887 395.995,-266.6117 425.5696,-252.1772"/>
<polygon fill="#000000" stroke="#000000" points="427.4529,-255.1524 434.8989,-247.6153 424.3779,-248.864 427.4529,-255.1524"/>
</g>
<!-- [root] aws_launch_configuration.web&#45;lc -->
<g id="node_2" class="node">
<title>[root] aws_launch_configuration.web&#45;lc</title>
<polygon fill="none" stroke="#000000" points="76,-234 76,-249 197,-249 197,-234 76,-234"/>
<text text-anchor="start" x="78.8906" y="-239.6" font-family="courier new" font-size="8.00" fill="#000000">aws_launch_configuration</text>
<polygon fill="none" stroke="#000000" points="76,-219 76,-234 197,-234 197,-219 76,-219"/>
<text text-anchor="start" x="122.0977" y="-224.6" font-family="courier new" font-size="8.00" fill="#000000">web&#45;lc</text>
</g>
<!-- [root] aws_autoscaling_group.web&#45;asg&#45;&gt;[root] aws_launch_configuration.web&#45;lc -->
<g id="edge_1" class="edge">
<title>[root] aws_autoscaling_group.web&#45;asg&#45;&gt;[root] aws_launch_configuration.web&#45;lc</title>
<path fill="none" stroke="#000000" d="M268.3354,-287.8314C244.4523,-278.1162 214.871,-266.0831 189.7372,-255.8592"/>
<polygon fill="#000000" stroke="#000000" points="190.9252,-252.564 180.3434,-252.038 188.2875,-259.0481 190.9252,-252.564"/>
</g>
<!-- [root] var.asg_desired -->
<g id="node_5" class="node">
<title>[root] var.asg_desired</title>
<polygon fill="none" stroke="#000000" points="215,-234 215,-249 273,-249 273,-234 215,-234"/>
<text text-anchor="start" x="236.7988" y="-239.6" font-family="courier new" font-size="8.00" fill="#000000">var</text>
<polygon fill="none" stroke="#000000" points="215,-219 215,-234 273,-234 273,-219 215,-219"/>
<text text-anchor="start" x="217.5957" y="-224.6" font-family="courier new" font-size="8.00" fill="#000000">asg_desired</text>
</g>
<!-- [root] aws_autoscaling_group.web&#45;asg&#45;&gt;[root] var.asg_desired -->
<g id="edge_2" class="edge">
<title>[root] aws_autoscaling_group.web&#45;asg&#45;&gt;[root] var.asg_desired</title>
<path fill="none" stroke="#000000" d="M295.5884,-287.8314C287.479,-279.3694 277.6844,-269.1489 268.818,-259.8971"/>
<polygon fill="#000000" stroke="#000000" points="271.0921,-257.2115 261.646,-252.4133 266.0382,-262.0549 271.0921,-257.2115"/>
</g>
<!-- [root] var.asg_max -->
<g id="node_6" class="node">
<title>[root] var.asg_max</title>
<polygon fill="none" stroke="#000000" points="299,-234 299,-249 338,-249 338,-234 299,-234"/>
<text text-anchor="start" x="311.2988" y="-239.6" font-family="courier new" font-size="8.00" fill="#000000">var</text>
<polygon fill="none" stroke="#000000" points="299,-219 299,-234 338,-234 338,-219 299,-219"/>
<text text-anchor="start" x="301.6973" y="-224.6" font-family="courier new" font-size="8.00" fill="#000000">asg_max</text>
</g>
<!-- [root] aws_autoscaling_group.web&#45;asg&#45;&gt;[root] var.asg_max -->
<g id="edge_3" class="edge">
<title>[root] aws_autoscaling_group.web&#45;asg&#45;&gt;[root] var.asg_max</title>
<path fill="none" stroke="#000000" d="M314.2617,-287.8314C314.7965,-280.131 315.4323,-270.9743 316.0266,-262.4166"/>
<polygon fill="#000000" stroke="#000000" points="319.52,-262.6317 316.7213,-252.4133 312.5368,-262.1467 319.52,-262.6317"/>
</g>
<!-- [root] var.asg_min -->
<g id="node_7" class="node">
<title>[root] var.asg_min</title>
<polygon fill="none" stroke="#000000" points="371,-234 371,-249 410,-249 410,-234 371,-234"/>
<text text-anchor="start" x="383.2988" y="-239.6" font-family="courier new" font-size="8.00" fill="#000000">var</text>
<polygon fill="none" stroke="#000000" points="371,-219 371,-234 410,-234 410,-219 371,-219"/>
<text text-anchor="start" x="373.6973" y="-224.6" font-family="courier new" font-size="8.00" fill="#000000">asg_min</text>
</g>
<!-- [root] aws_autoscaling_group.web&#45;asg&#45;&gt;[root] var.asg_min -->
<g id="edge_4" class="edge">
<title>[root] aws_autoscaling_group.web&#45;asg&#45;&gt;[root] var.asg_min</title>
<path fill="none" stroke="#000000" d="M332.4304,-287.8314C341.732,-279.1337 353.0204,-268.5783 363.1286,-259.1265"/>
<polygon fill="#000000" stroke="#000000" points="365.6621,-261.5493 370.5759,-252.1628 360.8811,-256.4363 365.6621,-261.5493"/>
</g>
<!-- [root] provider.aws -->
<g id="node_4" class="node">
<title>[root] provider.aws</title>
<polygon fill="none" stroke="#000000" points="195,-90 195,-105 239,-105 239,-90 195,-90"/>
<text text-anchor="start" x="197.7969" y="-95.6" font-family="courier new" font-size="8.00" fill="#000000">provider</text>
<polygon fill="none" stroke="#000000" points="195,-75 195,-90 239,-90 239,-75 195,-75"/>
<text text-anchor="start" x="209.7988" y="-80.6" font-family="courier new" font-size="8.00" fill="#000000">aws</text>
</g>
<!-- [root] aws_elb.web&#45;elb&#45;&gt;[root] provider.aws -->
<g id="edge_5" class="edge">
<title>[root] aws_elb.web&#45;elb&#45;&gt;[root] provider.aws</title>
<path fill="none" stroke="#000000" d="M438.13,-215.8786C412.4326,-196.7858 369.9833,-166.4328 331,-144 305.9208,-129.5683 276.3625,-115.6492 253.629,-105.5579"/>
<polygon fill="#000000" stroke="#000000" points="254.9002,-102.2935 244.3368,-101.477 252.0854,-108.7027 254.9002,-102.2935"/>
</g>
<!-- [root] var.availability_zones -->
<g id="node_8" class="node">
<title>[root] var.availability_zones</title>
<polygon fill="none" stroke="#000000" points="416,-162 416,-177 508,-177 508,-162 416,-162"/>
<text text-anchor="start" x="454.7988" y="-167.6" font-family="courier new" font-size="8.00" fill="#000000">var</text>
<polygon fill="none" stroke="#000000" points="416,-147 416,-162 508,-162 508,-147 416,-147"/>
<text text-anchor="start" x="418.793" y="-152.6" font-family="courier new" font-size="8.00" fill="#000000">availability_zones</text>
</g>
<!-- [root] aws_elb.web&#45;elb&#45;&gt;[root] var.availability_zones -->
<g id="edge_6" class="edge">
<title>[root] aws_elb.web&#45;elb&#45;&gt;[root] var.availability_zones</title>
<path fill="none" stroke="#000000" d="M462,-215.8314C462,-208.131 462,-198.9743 462,-190.4166"/>
<polygon fill="#000000" stroke="#000000" points="465.5001,-190.4132 462,-180.4133 458.5001,-190.4133 465.5001,-190.4132"/>
</g>
<!-- [root] aws_security_group.default -->
<g id="node_3" class="node">
<title>[root] aws_security_group.default</title>
<polygon fill="none" stroke="#000000" points="0,-162 0,-177 92,-177 92,-162 0,-162"/>
<text text-anchor="start" x="2.793" y="-167.6" font-family="courier new" font-size="8.00" fill="#000000">aws_security_group</text>
<polygon fill="none" stroke="#000000" points="0,-147 0,-162 92,-162 92,-147 0,-147"/>
<text text-anchor="start" x="29.1973" y="-152.6" font-family="courier new" font-size="8.00" fill="#000000">default</text>
</g>
<!-- [root] aws_launch_configuration.web&#45;lc&#45;&gt;[root] aws_security_group.default -->
<g id="edge_7" class="edge">
<title>[root] aws_launch_configuration.web&#45;lc&#45;&gt;[root] aws_security_group.default</title>
<path fill="none" stroke="#000000" d="M113.2892,-215.8314C102.204,-206.9632 88.7046,-196.1637 76.7148,-186.5718"/>
<polygon fill="#000000" stroke="#000000" points="78.6987,-183.6768 68.7035,-180.1628 74.3258,-189.1429 78.6987,-183.6768"/>
</g>
<!-- [root] var.aws_amis -->
<g id="node_9" class="node">
<title>[root] var.aws_amis</title>
<polygon fill="none" stroke="#000000" points="187,-162 187,-177 231,-177 231,-162 187,-162"/>
<text text-anchor="start" x="201.7988" y="-167.6" font-family="courier new" font-size="8.00" fill="#000000">var</text>
<polygon fill="none" stroke="#000000" points="187,-147 187,-162 231,-162 231,-147 187,-147"/>
<text text-anchor="start" x="189.7969" y="-152.6" font-family="courier new" font-size="8.00" fill="#000000">aws_amis</text>
</g>
<!-- [root] aws_launch_configuration.web&#45;lc&#45;&gt;[root] var.aws_amis -->
<g id="edge_8" class="edge">
<title>[root] aws_launch_configuration.web&#45;lc&#45;&gt;[root] var.aws_amis</title>
<path fill="none" stroke="#000000" d="M154.421,-215.8314C163.1529,-207.219 173.7317,-196.7851 183.2423,-187.4048"/>
<polygon fill="#000000" stroke="#000000" points="185.923,-189.6769 190.5849,-180.1628 181.0075,-184.6931 185.923,-189.6769"/>
</g>
<!-- [root] var.instance_type -->
<g id="node_10" class="node">
<title>[root] var.instance_type</title>
<polygon fill="none" stroke="#000000" points="254,-162 254,-177 322,-177 322,-162 254,-162"/>
<text text-anchor="start" x="280.7988" y="-167.6" font-family="courier new" font-size="8.00" fill="#000000">var</text>
<polygon fill="none" stroke="#000000" points="254,-147 254,-162 322,-162 322,-147 254,-147"/>
<text text-anchor="start" x="256.7949" y="-152.6" font-family="courier new" font-size="8.00" fill="#000000">instance_type</text>
</g>
<!-- [root] aws_launch_configuration.web&#45;lc&#45;&gt;[root] var.instance_type -->
<g id="edge_9" class="edge">
<title>[root] aws_launch_configuration.web&#45;lc&#45;&gt;[root] var.instance_type</title>
<path fill="none" stroke="#000000" d="M174.356,-215.8314C195.7491,-205.6978 222.466,-193.0424 244.6193,-182.5487"/>
<polygon fill="#000000" stroke="#000000" points="246.2663,-185.6415 253.8054,-178.1975 243.2696,-179.3153 246.2663,-185.6415"/>
</g>
<!-- [root] var.key_name -->
<g id="node_11" class="node">
<title>[root] var.key_name</title>
<polygon fill="none" stroke="#000000" points="115,-162 115,-177 159,-177 159,-162 115,-162"/>
<text text-anchor="start" x="129.7988" y="-167.6" font-family="courier new" font-size="8.00" fill="#000000">var</text>
<polygon fill="none" stroke="#000000" points="115,-147 115,-162 159,-162 159,-147 115,-147"/>
<text text-anchor="start" x="117.7969" y="-152.6" font-family="courier new" font-size="8.00" fill="#000000">key_name</text>
</g>
<!-- [root] aws_launch_configuration.web&#45;lc&#45;&gt;[root] var.key_name -->
<g id="edge_10" class="edge">
<title>[root] aws_launch_configuration.web&#45;lc&#45;&gt;[root] var.key_name</title>
<path fill="none" stroke="#000000" d="M136.2523,-215.8314C136.3593,-208.131 136.4865,-198.9743 136.6053,-190.4166"/>
<polygon fill="#000000" stroke="#000000" points="140.1049,-190.4609 136.7443,-180.4133 133.1056,-190.3637 140.1049,-190.4609"/>
</g>
<!-- [root] aws_security_group.default&#45;&gt;[root] provider.aws -->
<g id="edge_11" class="edge">
<title>[root] aws_security_group.default&#45;&gt;[root] provider.aws</title>
<path fill="none" stroke="#000000" d="M89.1505,-143.8314C117.3485,-131.9585 153.7682,-116.6239 180.5194,-105.3603"/>
<polygon fill="#000000" stroke="#000000" points="182.0464,-108.515 189.9045,-101.4086 179.33,-102.0635 182.0464,-108.515"/>
</g>
<!-- [root] var.aws_region -->
<g id="node_18" class="node">
<title>[root] var.aws_region</title>
<polygon fill="none" stroke="#000000" points="190,-18 190,-33 244,-33 244,-18 190,-18"/>
<text text-anchor="start" x="209.7988" y="-23.6" font-family="courier new" font-size="8.00" fill="#000000">var</text>
<polygon fill="none" stroke="#000000" points="190,-3 190,-18 244,-18 244,-3 190,-3"/>
<text text-anchor="start" x="192.9961" y="-8.6" font-family="courier new" font-size="8.00" fill="#000000">aws_region</text>
</g>
<!-- [root] provider.aws&#45;&gt;[root] var.aws_region -->
<g id="edge_21" class="edge">
<title>[root] provider.aws&#45;&gt;[root] var.aws_region</title>
<path fill="none" stroke="#000000" d="M217,-71.8314C217,-64.131 217,-54.9743 217,-46.4166"/>
<polygon fill="#000000" stroke="#000000" points="220.5001,-46.4132 217,-36.4133 213.5001,-46.4133 220.5001,-46.4132"/>
</g>
<!-- [root] meta.count&#45;boundary (count boundary fixup) -->
<g id="node_12" class="node">
<title>[root] meta.count&#45;boundary (count boundary fixup)</title>
<polygon fill="none" stroke="#000000" points="184,-450 184,-465 257,-465 257,-450 184,-450"/>
<text text-anchor="start" x="210.8984" y="-455.6" font-family="courier new" font-size="8.00" fill="#000000">meta</text>
<polygon fill="none" stroke="#000000" points="184,-435 184,-450 257,-450 257,-435 184,-435"/>
<text text-anchor="start" x="186.8945" y="-440.6" font-family="courier new" font-size="8.00" fill="#000000">count&#45;boundary</text>
</g>
<!-- [root] output.asg_name -->
<g id="node_13" class="node">
<title>[root] output.asg_name</title>
<polygon fill="none" stroke="#000000" points="198,-378 198,-393 242,-393 242,-378 198,-378"/>
<text text-anchor="start" x="205.5977" y="-383.6" font-family="courier new" font-size="8.00" fill="#000000">output</text>
<polygon fill="none" stroke="#000000" points="198,-363 198,-378 242,-378 242,-363 198,-363"/>
<text text-anchor="start" x="200.7969" y="-368.6" font-family="courier new" font-size="8.00" fill="#000000">asg_name</text>
</g>
<!-- [root] meta.count&#45;boundary (count boundary fixup)&#45;&gt;[root] output.asg_name -->
<g id="edge_12" class="edge">
<title>[root] meta.count&#45;boundary (count boundary fixup)&#45;&gt;[root] output.asg_name</title>
<path fill="none" stroke="#000000" d="M220,-431.8314C220,-424.131 220,-414.9743 220,-406.4166"/>
<polygon fill="#000000" stroke="#000000" points="223.5001,-406.4132 220,-396.4133 216.5001,-406.4133 223.5001,-406.4132"/>
</g>
<!-- [root] output.elb_name -->
<g id="node_14" class="node">
<title>[root] output.elb_name</title>
<polygon fill="none" stroke="#000000" points="429,-306 429,-321 473,-321 473,-306 429,-306"/>
<text text-anchor="start" x="436.5977" y="-311.6" font-family="courier new" font-size="8.00" fill="#000000">output</text>
<polygon fill="none" stroke="#000000" points="429,-291 429,-306 473,-306 473,-291 429,-291"/>
<text text-anchor="start" x="431.7969" y="-296.6" font-family="courier new" font-size="8.00" fill="#000000">elb_name</text>
</g>
<!-- [root] meta.count&#45;boundary (count boundary fixup)&#45;&gt;[root] output.elb_name -->
<g id="edge_13" class="edge">
<title>[root] meta.count&#45;boundary (count boundary fixup)&#45;&gt;[root] output.elb_name</title>
<path fill="none" stroke="#000000" d="M249.2563,-431.7623C291.4822,-405.4397 369.4383,-356.8436 415.0938,-328.3831"/>
<polygon fill="#000000" stroke="#000000" points="417.1394,-331.2323 423.7741,-322.972 413.4363,-325.292 417.1394,-331.2323"/>
</g>
<!-- [root] output.launch_configuration -->
<g id="node_15" class="node">
<title>[root] output.launch_configuration</title>
<polygon fill="none" stroke="#000000" points="93,-306 93,-321 195,-321 195,-306 93,-306"/>
<text text-anchor="start" x="129.5977" y="-311.6" font-family="courier new" font-size="8.00" fill="#000000">output</text>
<polygon fill="none" stroke="#000000" points="93,-291 93,-306 195,-306 195,-291 93,-291"/>
<text text-anchor="start" x="95.9922" y="-296.6" font-family="courier new" font-size="8.00" fill="#000000">launch_configuration</text>
</g>
<!-- [root] meta.count&#45;boundary (count boundary fixup)&#45;&gt;[root] output.launch_configuration -->
<g id="edge_14" class="edge">
<title>[root] meta.count&#45;boundary (count boundary fixup)&#45;&gt;[root] output.launch_configuration</title>
<path fill="none" stroke="#000000" d="M206.8737,-431.9893C199.673,-421.7134 190.8451,-408.4377 184,-396 172.8007,-375.6507 162.2239,-351.5556 154.7623,-333.42"/>
<polygon fill="#000000" stroke="#000000" points="157.9526,-331.9732 150.9534,-324.0194 151.4649,-334.6019 157.9526,-331.9732"/>
</g>
<!-- [root] output.security_group -->
<g id="node_16" class="node">
<title>[root] output.security_group</title>
<polygon fill="none" stroke="#000000" points="35,-378 35,-393 108,-393 108,-378 35,-378"/>
<text text-anchor="start" x="57.0977" y="-383.6" font-family="courier new" font-size="8.00" fill="#000000">output</text>
<polygon fill="none" stroke="#000000" points="35,-363 35,-378 108,-378 108,-363 35,-363"/>
<text text-anchor="start" x="37.8945" y="-368.6" font-family="courier new" font-size="8.00" fill="#000000">security_group</text>
</g>
<!-- [root] meta.count&#45;boundary (count boundary fixup)&#45;&gt;[root] output.security_group -->
<g id="edge_15" class="edge">
<title>[root] meta.count&#45;boundary (count boundary fixup)&#45;&gt;[root] output.security_group</title>
<path fill="none" stroke="#000000" d="M183.1685,-432.2022C163.1251,-422.5168 138.1452,-410.446 116.8497,-400.1556"/>
<polygon fill="#000000" stroke="#000000" points="118.1924,-396.9172 107.6657,-395.7177 115.1468,-403.2199 118.1924,-396.9172"/>
</g>
<!-- [root] output.asg_name&#45;&gt;[root] aws_autoscaling_group.web&#45;asg -->
<g id="edge_16" class="edge">
<title>[root] output.asg_name&#45;&gt;[root] aws_autoscaling_group.web&#45;asg</title>
<path fill="none" stroke="#000000" d="M243.4678,-359.8314C255.0327,-350.8779 269.1404,-339.9558 281.6183,-330.2955"/>
<polygon fill="#000000" stroke="#000000" points="283.775,-333.0521 289.5397,-324.1628 279.4898,-327.5171 283.775,-333.0521"/>
</g>
<!-- [root] output.elb_name&#45;&gt;[root] aws_elb.web&#45;elb -->
<g id="edge_17" class="edge">
<title>[root] output.elb_name&#45;&gt;[root] aws_elb.web&#45;elb</title>
<path fill="none" stroke="#000000" d="M453.7758,-287.8314C454.9522,-280.131 456.3511,-270.9743 457.6586,-262.4166"/>
<polygon fill="#000000" stroke="#000000" points="461.1364,-262.8272 459.1869,-252.4133 454.2167,-261.7699 461.1364,-262.8272"/>
</g>
<!-- [root] output.launch_configuration&#45;&gt;[root] aws_launch_configuration.web&#45;lc -->
<g id="edge_18" class="edge">
<title>[root] output.launch_configuration&#45;&gt;[root] aws_launch_configuration.web&#45;lc</title>
<path fill="none" stroke="#000000" d="M141.9813,-287.8314C141.1257,-280.131 140.1083,-270.9743 139.1574,-262.4166"/>
<polygon fill="#000000" stroke="#000000" points="142.6289,-261.9656 138.0459,-252.4133 135.6717,-262.7386 142.6289,-261.9656"/>
</g>
<!-- [root] output.security_group&#45;&gt;[root] aws_security_group.default -->
<g id="edge_19" class="edge">
<title>[root] output.security_group&#45;&gt;[root] aws_security_group.default</title>
<path fill="none" stroke="#000000" d="M68.9115,-359.9555C64.5549,-322.3144 54.4707,-235.1867 49.2552,-190.1246"/>
<polygon fill="#000000" stroke="#000000" points="52.7267,-189.6763 48.1001,-180.1451 45.7732,-190.4812 52.7267,-189.6763"/>
</g>
<!-- [root] provider.aws (close) -->
<g id="node_17" class="node">
<title>[root] provider.aws (close)</title>
<polygon fill="none" stroke="#000000" points="285,-450 285,-465 329,-465 329,-450 285,-450"/>
<text text-anchor="start" x="287.7969" y="-455.6" font-family="courier new" font-size="8.00" fill="#000000">provider</text>
<polygon fill="none" stroke="#000000" points="285,-435 285,-450 329,-450 329,-435 285,-435"/>
<text text-anchor="start" x="299.7988" y="-440.6" font-family="courier new" font-size="8.00" fill="#000000">aws</text>
</g>
<!-- [root] provider.aws (close)&#45;&gt;[root] aws_autoscaling_group.web&#45;asg -->
<g id="edge_20" class="edge">
<title>[root] provider.aws (close)&#45;&gt;[root] aws_autoscaling_group.web&#45;asg</title>
<path fill="none" stroke="#000000" d="M307.7599,-431.7623C308.7833,-407.201 310.6147,-363.2474 311.8186,-334.3541"/>
<polygon fill="#000000" stroke="#000000" points="315.3268,-334.2267 312.2463,-324.0896 308.3329,-333.9352 315.3268,-334.2267"/>
</g>
<!-- [root] root -->
<g id="node_19" class="node">
<title>[root] root</title>
<polygon fill="none" stroke="#000000" points="295.3089,-540 226.6911,-540 226.6911,-504 295.3089,-504 295.3089,-540"/>
<text text-anchor="middle" x="261" y="-520.1313" font-family="courier new" font-size="8.00" fill="#000000">[root] root</text>
</g>
<!-- [root] root&#45;&gt;[root] meta.count&#45;boundary (count boundary fixup) -->
<g id="edge_22" class="edge">
<title>[root] root&#45;&gt;[root] meta.count&#45;boundary (count boundary fixup)</title>
<path fill="none" stroke="#000000" d="M250.654,-503.8314C246.0763,-495.7925 240.5948,-486.1666 235.5412,-477.2918"/>
<polygon fill="#000000" stroke="#000000" points="238.4752,-475.3712 230.4853,-468.4133 232.3923,-478.8351 238.4752,-475.3712"/>
</g>
<!-- [root] root&#45;&gt;[root] provider.aws (close) -->
<g id="edge_23" class="edge">
<title>[root] root&#45;&gt;[root] provider.aws (close)</title>
<path fill="none" stroke="#000000" d="M272.6077,-503.8314C277.7978,-495.7079 284.0232,-485.9637 289.7425,-477.0118"/>
<polygon fill="#000000" stroke="#000000" points="292.8015,-478.7246 295.236,-468.4133 286.9026,-474.9559 292.8015,-478.7246"/>
</g>
</g>
</svg>

