{
    "nodes": [
        {
            "group": 20000,
            "label": "[root] azurerm_resource_group.rg",
            "type": "azurerm_resource_group",
            "simple_name": "azurerm_resource_group.rg",
            "definition": {
                "name": "${var.resource_group}",
                "location": "${var.location}"
            },
            "resource_name": "rg",
            "svg_id": "node_0"
        },
        {
            "group": 20000,
            "label": "[root] azurerm_servicebus_namespace.test",
            "type": "azurerm_servicebus_namespace",
            "simple_name": "azurerm_servicebus_namespace.test",
            "definition": {
                "depends_on": [
                    "azurerm_resource_group.rg"
                ],
                "name": "${var.unique}servicebus",
                "location": "${var.location}",
                "resource_group_name": "${var.resource_group}",
                "sku": "standard"
            },
            "resource_name": "test",
            "svg_id": "node_1"
        },
        {
            "group": 20000,
            "label": "[root] azurerm_servicebus_subscription.test",
            "type": "azurerm_servicebus_subscription",
            "simple_name": "azurerm_servicebus_subscription.test",
            "definition": {
                "name": "${var.unique}Subscription",
                "location": "${var.location}",
                "resource_group_name": "${var.resource_group}",
                "namespace_name": "${azurerm_servicebus_namespace.test.name}",
                "topic_name": "${azurerm_servicebus_topic.test.name}",
                "max_delivery_count": 1
            },
            "resource_name": "test",
            "svg_id": "node_2"
        },
        {
            "group": 20000,
            "label": "[root] azurerm_servicebus_topic.test",
            "type": "azurerm_servicebus_topic",
            "simple_name": "azurerm_servicebus_topic.test",
            "definition": {
                "name": "${var.unique}Topic",
                "location": "${var.location}",
                "resource_group_name": "${var.resource_group}",
                "namespace_name": "${azurerm_servicebus_namespace.test.name}",
                "enable_partitioning": true
            },
            "resource_name": "test",
            "svg_id": "node_3"
        },
        {
            "group": 20000,
            "label": "[root] provider.azurerm",
            "type": "provider",
            "simple_name": "provider.azurerm",
            "definition": "",
            "resource_name": "azurerm",
            "svg_id": "node_4"
        },
        {
            "group": 20000,
            "label": "[root] var.location",
            "type": "var",
            "simple_name": "var.location",
            "definition": {
                "description": "The location/region where the Service Bus is created. Changing this forces a new resource to be created.",
                "default": "southcentralus"
            },
            "resource_name": "location",
            "svg_id": "node_5"
        },
        {
            "group": 20000,
            "label": "[root] var.resource_group",
            "type": "var",
            "simple_name": "var.resource_group",
            "definition": {
                "description": "The name of the resource group in which to create the Service Bus"
            },
            "resource_name": "resource_group",
            "svg_id": "node_6"
        },
        {
            "group": 20000,
            "label": "[root] var.unique",
            "type": "var",
            "simple_name": "var.unique",
            "definition": {
                "description": "a unique string that will be used to comprise the names of the Service Bus, Topic, and Subscription name spaces"
            },
            "resource_name": "unique",
            "svg_id": "node_7"
        },
        {
            "group": 20000,
            "label": "[root] meta.count-boundary (count boundary fixup)",
            "type": "meta",
            "simple_name": "meta.count-boundary (count boundary fixup)",
            "definition": "",
            "resource_name": "count-boundary",
            "svg_id": "node_8"
        },
        {
            "group": 20000,
            "label": "[root] output.Namespace Connection String",
            "type": "output",
            "simple_name": "output.Namespace Connection String",
            "definition": "",
            "resource_name": "Namespace",
            "svg_id": "node_9"
        },
        {
            "group": 20000,
            "label": "[root] output.Shared Access Policy PrimaryKey",
            "type": "output",
            "simple_name": "output.Shared Access Policy PrimaryKey",
            "definition": "",
            "resource_name": "Shared",
            "svg_id": "node_10"
        },
        {
            "group": 20000,
            "label": "[root] provider.azurerm (close)",
            "type": "provider",
            "simple_name": "provider.azurerm (close)",
            "definition": "",
            "resource_name": "azurerm",
            "svg_id": "node_11"
        },
        {
            "group": 20000,
            "label": "[root] root",
            "type": "",
            "simple_name": "root",
            "definition": "",
            "resource_name": "",
            "svg_id": "node_12"
        }
    ],
    "edges": [
        {
            "target": "[root] provider.azurerm",
            "source": "[root] azurerm_resource_group.rg",
            "svg_id": "edge_0"
        },
        {
            "target": "[root] var.location",
            "source": "[root] azurerm_resource_group.rg",
            "svg_id": "edge_1"
        },
        {
            "target": "[root] var.resource_group",
            "source": "[root] azurerm_resource_group.rg",
            "svg_id": "edge_2"
        },
        {
            "target": "[root] azurerm_resource_group.rg",
            "source": "[root] azurerm_servicebus_namespace.test",
            "svg_id": "edge_3"
        },
        {
            "target": "[root] var.unique",
            "source": "[root] azurerm_servicebus_namespace.test",
            "svg_id": "edge_4"
        },
        {
            "target": "[root] azurerm_servicebus_topic.test",
            "source": "[root] azurerm_servicebus_subscription.test",
            "svg_id": "edge_5"
        },
        {
            "target": "[root] azurerm_servicebus_namespace.test",
            "source": "[root] azurerm_servicebus_topic.test",
            "svg_id": "edge_6"
        },
        {
            "target": "[root] azurerm_servicebus_subscription.test",
            "source": "[root] meta.count-boundary (count boundary fixup)",
            "svg_id": "edge_7"
        },
        {
            "target": "[root] output.Namespace Connection String",
            "source": "[root] meta.count-boundary (count boundary fixup)",
            "svg_id": "edge_8"
        },
        {
            "target": "[root] output.Shared Access Policy PrimaryKey",
            "source": "[root] meta.count-boundary (count boundary fixup)",
            "svg_id": "edge_9"
        },
        {
            "target": "[root] azurerm_servicebus_namespace.test",
            "source": "[root] output.Namespace Connection String",
            "svg_id": "edge_10"
        },
        {
            "target": "[root] azurerm_servicebus_namespace.test",
            "source": "[root] output.Shared Access Policy PrimaryKey",
            "svg_id": "edge_11"
        },
        {
            "target": "[root] azurerm_servicebus_subscription.test",
            "source": "[root] provider.azurerm (close)",
            "svg_id": "edge_12"
        },
        {
            "target": "[root] meta.count-boundary (count boundary fixup)",
            "source": "[root] root",
            "svg_id": "edge_13"
        },
        {
            "target": "[root] provider.azurerm (close)",
            "source": "[root] root",
            "svg_id": "edge_14"
        }
    ]
}
