<?xml version="1.0" encoding="UTF-8" standalone="no"?>
<!DOCTYPE svg PUBLIC "-//W3C//DTD SVG 1.1//EN"
 "http://www.w3.org/Graphics/SVG/1.1/DTD/svg11.dtd">
<!-- Generated by graphviz version 2.40.1 (20161225.0304)
 -->
<!-- Title: %3 Pages: 1 -->
<svg width="964pt" height="764pt"
 viewBox="0.00 0.00 964.00 764.00" xmlns="http://www.w3.org/2000/svg" xmlns:xlink="http://www.w3.org/1999/xlink">
<g id="graph0" class="graph" transform="scale(1 1) rotate(0) translate(4 760)">
<title>%3</title>
<polygon fill="#ffffff" stroke="transparent" points="-4,4 -4,-760 960,-760 960,4 -4,4"/>
<!-- [root] google_compute_firewall.allow&#45;all&#45;internal -->
<g id="node_0" class="node">
<title>[root] google_compute_firewall.allow&#45;all&#45;internal</title>
<polygon fill="none" stroke="#000000" points="268,-522 268,-537 384,-537 384,-522 268,-522"/>
<text text-anchor="start" x="270.791" y="-527.6" font-family="courier new" font-size="8.00" fill="#000000">google_compute_firewall</text>
<polygon fill="none" stroke="#000000" points="268,-507 268,-522 384,-522 384,-507 268,-507"/>
<text text-anchor="start" x="282.793" y="-512.6" font-family="courier new" font-size="8.00" fill="#000000">allow&#45;all&#45;internal</text>
</g>
<!-- [root] google_compute_network.my&#45;custom&#45;network -->
<g id="node_14" class="node">
<title>[root] google_compute_network.my&#45;custom&#45;network</title>
<polygon fill="none" stroke="#000000" points="213,-162 213,-177 324,-177 324,-162 213,-162"/>
<text text-anchor="start" x="215.6914" y="-167.6" font-family="courier new" font-size="8.00" fill="#000000">google_compute_network</text>
<polygon fill="none" stroke="#000000" points="213,-147 213,-162 324,-162 324,-147 213,-147"/>
<text text-anchor="start" x="227.6934" y="-152.6" font-family="courier new" font-size="8.00" fill="#000000">my&#45;custom&#45;network</text>
</g>
<!-- [root] google_compute_firewall.allow&#45;all&#45;internal&#45;&gt;[root] google_compute_network.my&#45;custom&#45;network -->
<g id="edge_0" class="edge">
<title>[root] google_compute_firewall.allow&#45;all&#45;internal&#45;&gt;[root] google_compute_network.my&#45;custom&#45;network</title>
<path fill="none" stroke="#000000" d="M292.9504,-503.9727C279.0675,-494.8685 263.8811,-482.6324 254,-468 230.8322,-433.6921 230,-419.3978 230,-378 230,-378 230,-378 230,-306 230,-264.3681 245.0328,-218.14 256.1881,-189.567"/>
<polygon fill="#000000" stroke="#000000" points="259.4578,-190.817 259.9412,-180.2332 252.9632,-188.2055 259.4578,-190.817"/>
</g>
<!-- [root] google_compute_firewall.allow&#45;health&#45;check -->
<g id="node_1" class="node">
<title>[root] google_compute_firewall.allow&#45;health&#45;check</title>
<polygon fill="none" stroke="#000000" points="402,-522 402,-537 518,-537 518,-522 402,-522"/>
<text text-anchor="start" x="404.791" y="-527.6" font-family="courier new" font-size="8.00" fill="#000000">google_compute_firewall</text>
<polygon fill="none" stroke="#000000" points="402,-507 402,-522 518,-522 518,-507 402,-507"/>
<text text-anchor="start" x="416.793" y="-512.6" font-family="courier new" font-size="8.00" fill="#000000">allow&#45;health&#45;check</text>
</g>
<!-- [root] google_compute_firewall.allow&#45;health&#45;check&#45;&gt;[root] google_compute_network.my&#45;custom&#45;network -->
<g id="edge_1" class="edge">
<title>[root] google_compute_firewall.allow&#45;health&#45;check&#45;&gt;[root] google_compute_network.my&#45;custom&#45;network</title>
<path fill="none" stroke="#000000" d="M401.8726,-505.5006C345.3621,-485.4804 268,-445.7083 268,-378 268,-378 268,-378 268,-306 268,-265.876 268,-219.4631 268,-190.4177"/>
<polygon fill="#000000" stroke="#000000" points="271.5001,-190.1853 268,-180.1854 264.5001,-190.1854 271.5001,-190.1853"/>
</g>
<!-- [root] google_compute_firewall.allow&#45;internal&#45;lb -->
<g id="node_2" class="node">
<title>[root] google_compute_firewall.allow&#45;internal&#45;lb</title>
<polygon fill="none" stroke="#000000" points="780,-522 780,-537 896,-537 896,-522 780,-522"/>
<text text-anchor="start" x="782.791" y="-527.6" font-family="courier new" font-size="8.00" fill="#000000">google_compute_firewall</text>
<polygon fill="none" stroke="#000000" points="780,-507 780,-522 896,-522 896,-507 780,-507"/>
<text text-anchor="start" x="797.1934" y="-512.6" font-family="courier new" font-size="8.00" fill="#000000">allow&#45;internal&#45;lb</text>
</g>
<!-- [root] google_compute_firewall.allow&#45;internal&#45;lb&#45;&gt;[root] google_compute_network.my&#45;custom&#45;network -->
<g id="edge_2" class="edge">
<title>[root] google_compute_firewall.allow&#45;internal&#45;lb&#45;&gt;[root] google_compute_network.my&#45;custom&#45;network</title>
<path fill="none" stroke="#000000" d="M867.472,-503.8291C902.4228,-479.7536 956,-433.7546 956,-378 956,-378 956,-378 956,-306 956,-234.6269 890.1445,-240.2021 823,-216 777.9537,-199.7632 471.0473,-176.3704 333.9349,-166.5802"/>
<polygon fill="#000000" stroke="#000000" points="333.7952,-163.0615 323.572,-165.8431 333.2985,-170.0438 333.7952,-163.0615"/>
</g>
<!-- [root] google_compute_firewall.allow&#45;ssh&#45;rdp&#45;icmp -->
<g id="node_3" class="node">
<title>[root] google_compute_firewall.allow&#45;ssh&#45;rdp&#45;icmp</title>
<polygon fill="none" stroke="#000000" points="0,-522 0,-537 116,-537 116,-522 0,-522"/>
<text text-anchor="start" x="2.791" y="-527.6" font-family="courier new" font-size="8.00" fill="#000000">google_compute_firewall</text>
<polygon fill="none" stroke="#000000" points="0,-507 0,-522 116,-522 116,-507 0,-507"/>
<text text-anchor="start" x="14.793" y="-512.6" font-family="courier new" font-size="8.00" fill="#000000">allow&#45;ssh&#45;rdp&#45;icmp</text>
</g>
<!-- [root] google_compute_firewall.allow&#45;ssh&#45;rdp&#45;icmp&#45;&gt;[root] google_compute_network.my&#45;custom&#45;network -->
<g id="edge_3" class="edge">
<title>[root] google_compute_firewall.allow&#45;ssh&#45;rdp&#45;icmp&#45;&gt;[root] google_compute_network.my&#45;custom&#45;network</title>
<path fill="none" stroke="#000000" d="M68.4153,-503.5566C82.5325,-476.7787 106,-425.1706 106,-378 106,-378 106,-378 106,-306 106,-247.7911 165.1487,-207.3508 211.9652,-184.4588"/>
<polygon fill="#000000" stroke="#000000" points="213.6019,-187.5564 221.1429,-180.1143 210.6069,-181.2294 213.6019,-187.5564"/>
</g>
<!-- [root] google_compute_firewall.allow&#45;ssh&#45;to&#45;standalone -->
<g id="node_4" class="node">
<title>[root] google_compute_firewall.allow&#45;ssh&#45;to&#45;standalone</title>
<polygon fill="none" stroke="#000000" points="134,-522 134,-537 250,-537 250,-522 134,-522"/>
<text text-anchor="start" x="136.791" y="-527.6" font-family="courier new" font-size="8.00" fill="#000000">google_compute_firewall</text>
<polygon fill="none" stroke="#000000" points="134,-507 134,-522 250,-522 250,-507 134,-507"/>
<text text-anchor="start" x="136.791" y="-512.6" font-family="courier new" font-size="8.00" fill="#000000">allow&#45;ssh&#45;to&#45;standalone</text>
</g>
<!-- [root] google_compute_firewall.allow&#45;ssh&#45;to&#45;standalone&#45;&gt;[root] google_compute_network.my&#45;custom&#45;network -->
<g id="edge_4" class="edge">
<title>[root] google_compute_firewall.allow&#45;ssh&#45;to&#45;standalone&#45;&gt;[root] google_compute_network.my&#45;custom&#45;network</title>
<path fill="none" stroke="#000000" d="M192,-503.8146C192,-476.4983 192,-423.25 192,-378 192,-378 192,-378 192,-306 192,-260.656 221.8384,-215.5999 244.1226,-188.2735"/>
<polygon fill="#000000" stroke="#000000" points="247.0006,-190.2889 250.7544,-180.3814 241.6415,-185.7856 247.0006,-190.2889"/>
</g>
<!-- [root] google_compute_forwarding_rule.my&#45;int&#45;lb&#45;forwarding&#45;rule -->
<g id="node_5" class="node">
<title>[root] google_compute_forwarding_rule.my&#45;int&#45;lb&#45;forwarding&#45;rule</title>
<polygon fill="none" stroke="#000000" points="612,-522 612,-537 762,-537 762,-522 612,-522"/>
<text text-anchor="start" x="614.9883" y="-527.6" font-family="courier new" font-size="8.00" fill="#000000">google_compute_forwarding_rule</text>
<polygon fill="none" stroke="#000000" points="612,-507 612,-522 762,-522 762,-507 612,-507"/>
<text text-anchor="start" x="626.9902" y="-512.6" font-family="courier new" font-size="8.00" fill="#000000">my&#45;int&#45;lb&#45;forwarding&#45;rule</text>
</g>
<!-- [root] google_compute_region_backend_service.my&#45;int&#45;lb -->
<g id="node_15" class="node">
<title>[root] google_compute_region_backend_service.my&#45;int&#45;lb</title>
<polygon fill="none" stroke="#000000" points="623,-450 623,-465 806,-465 806,-450 623,-450"/>
<text text-anchor="start" x="625.6855" y="-455.6" font-family="courier new" font-size="8.00" fill="#000000">google_compute_region_backend_service</text>
<polygon fill="none" stroke="#000000" points="623,-435 623,-450 806,-450 806,-435 623,-435"/>
<text text-anchor="start" x="692.8965" y="-440.6" font-family="courier new" font-size="8.00" fill="#000000">my&#45;int&#45;lb</text>
</g>
<!-- [root] google_compute_forwarding_rule.my&#45;int&#45;lb&#45;forwarding&#45;rule&#45;&gt;[root] google_compute_region_backend_service.my&#45;int&#45;lb -->
<g id="edge_5" class="edge">
<title>[root] google_compute_forwarding_rule.my&#45;int&#45;lb&#45;forwarding&#45;rule&#45;&gt;[root] google_compute_region_backend_service.my&#45;int&#45;lb</title>
<path fill="none" stroke="#000000" d="M693.8132,-503.8314C696.7644,-495.9617 700.2858,-486.5712 703.555,-477.8533"/>
<polygon fill="#000000" stroke="#000000" points="706.8609,-479.0055 707.095,-468.4133 700.3066,-476.5476 706.8609,-479.0055"/>
</g>
<!-- [root] google_compute_health_check.my&#45;tcp&#45;health&#45;check -->
<g id="node_6" class="node">
<title>[root] google_compute_health_check.my&#45;tcp&#45;health&#45;check</title>
<polygon fill="none" stroke="#000000" points="596,-162 596,-177 731,-177 731,-162 596,-162"/>
<text text-anchor="start" x="598.6895" y="-167.6" font-family="courier new" font-size="8.00" fill="#000000">google_compute_health_check</text>
<polygon fill="none" stroke="#000000" points="596,-147 596,-162 731,-162 731,-147 596,-147"/>
<text text-anchor="start" x="617.8926" y="-152.6" font-family="courier new" font-size="8.00" fill="#000000">my&#45;tcp&#45;health&#45;check</text>
</g>
<!-- [root] provider.google -->
<g id="node_17" class="node">
<title>[root] provider.google</title>
<polygon fill="none" stroke="#000000" points="316,-90 316,-105 360,-105 360,-90 316,-90"/>
<text text-anchor="start" x="318.7969" y="-95.6" font-family="courier new" font-size="8.00" fill="#000000">provider</text>
<polygon fill="none" stroke="#000000" points="316,-75 316,-90 360,-90 360,-75 316,-75"/>
<text text-anchor="start" x="323.5977" y="-80.6" font-family="courier new" font-size="8.00" fill="#000000">google</text>
</g>
<!-- [root] google_compute_health_check.my&#45;tcp&#45;health&#45;check&#45;&gt;[root] provider.google -->
<g id="edge_6" class="edge">
<title>[root] google_compute_health_check.my&#45;tcp&#45;health&#45;check&#45;&gt;[root] provider.google</title>
<path fill="none" stroke="#000000" d="M595.265,-146.9941C528.468,-132.196 428.8333,-110.1231 375.2704,-98.2568"/>
<polygon fill="#000000" stroke="#000000" points="375.7158,-94.7707 365.1954,-96.0248 374.2017,-101.605 375.7158,-94.7707"/>
</g>
<!-- [root] google_compute_instance.ilb&#45;instance&#45;1 -->
<g id="node_7" class="node">
<title>[root] google_compute_instance.ilb&#45;instance&#45;1</title>
<polygon fill="none" stroke="#000000" points="468,-306 468,-321 584,-321 584,-306 468,-306"/>
<text text-anchor="start" x="470.791" y="-311.6" font-family="courier new" font-size="8.00" fill="#000000">google_compute_instance</text>
<polygon fill="none" stroke="#000000" points="468,-291 468,-306 584,-306 584,-291 468,-291"/>
<text text-anchor="start" x="492.3945" y="-296.6" font-family="courier new" font-size="8.00" fill="#000000">ilb&#45;instance&#45;1</text>
</g>
<!-- [root] google_compute_subnetwork.my&#45;custom&#45;subnet -->
<g id="node_16" class="node">
<title>[root] google_compute_subnetwork.my&#45;custom&#45;subnet</title>
<polygon fill="none" stroke="#000000" points="506,-234 506,-249 632,-249 632,-234 506,-234"/>
<text text-anchor="start" x="508.9902" y="-239.6" font-family="courier new" font-size="8.00" fill="#000000">google_compute_subnetwork</text>
<polygon fill="none" stroke="#000000" points="506,-219 506,-234 632,-234 632,-219 506,-219"/>
<text text-anchor="start" x="530.5938" y="-224.6" font-family="courier new" font-size="8.00" fill="#000000">my&#45;custom&#45;subnet</text>
</g>
<!-- [root] google_compute_instance.ilb&#45;instance&#45;1&#45;&gt;[root] google_compute_subnetwork.my&#45;custom&#45;subnet -->
<g id="edge_7" class="edge">
<title>[root] google_compute_instance.ilb&#45;instance&#45;1&#45;&gt;[root] google_compute_subnetwork.my&#45;custom&#45;subnet</title>
<path fill="none" stroke="#000000" d="M536.8507,-287.8314C541.7023,-279.7079 547.5217,-269.9637 552.868,-261.0118"/>
<polygon fill="#000000" stroke="#000000" points="555.8806,-262.7933 558.0032,-252.4133 549.8708,-259.2041 555.8806,-262.7933"/>
</g>
<!-- [root] var.region_zone -->
<g id="node_18" class="node">
<title>[root] var.region_zone</title>
<polygon fill="none" stroke="#000000" points="363,-234 363,-249 421,-249 421,-234 363,-234"/>
<text text-anchor="start" x="384.7988" y="-239.6" font-family="courier new" font-size="8.00" fill="#000000">var</text>
<polygon fill="none" stroke="#000000" points="363,-219 363,-234 421,-234 421,-219 363,-219"/>
<text text-anchor="start" x="365.5957" y="-224.6" font-family="courier new" font-size="8.00" fill="#000000">region_zone</text>
</g>
<!-- [root] google_compute_instance.ilb&#45;instance&#45;1&#45;&gt;[root] var.region_zone -->
<g id="edge_8" class="edge">
<title>[root] google_compute_instance.ilb&#45;instance&#45;1&#45;&gt;[root] var.region_zone</title>
<path fill="none" stroke="#000000" d="M492.1861,-287.8314C473.3113,-277.6897 449.7356,-265.0221 430.1965,-254.5235"/>
<polygon fill="#000000" stroke="#000000" points="431.7172,-251.3674 421.2516,-249.7173 428.4039,-257.5336 431.7172,-251.3674"/>
</g>
<!-- [root] google_compute_instance.ilb&#45;instance&#45;2 -->
<g id="node_8" class="node">
<title>[root] google_compute_instance.ilb&#45;instance&#45;2</title>
<polygon fill="none" stroke="#000000" points="334,-306 334,-321 450,-321 450,-306 334,-306"/>
<text text-anchor="start" x="336.791" y="-311.6" font-family="courier new" font-size="8.00" fill="#000000">google_compute_instance</text>
<polygon fill="none" stroke="#000000" points="334,-291 334,-306 450,-306 450,-291 334,-291"/>
<text text-anchor="start" x="358.3945" y="-296.6" font-family="courier new" font-size="8.00" fill="#000000">ilb&#45;instance&#45;2</text>
</g>
<!-- [root] google_compute_instance.ilb&#45;instance&#45;2&#45;&gt;[root] google_compute_subnetwork.my&#45;custom&#45;subnet -->
<g id="edge_9" class="edge">
<title>[root] google_compute_instance.ilb&#45;instance&#45;2&#45;&gt;[root] google_compute_subnetwork.my&#45;custom&#45;subnet</title>
<path fill="none" stroke="#000000" d="M436.6646,-287.8314C460.5477,-278.1162 490.129,-266.0831 515.2628,-255.8592"/>
<polygon fill="#000000" stroke="#000000" points="516.7125,-259.0481 524.6566,-252.038 514.0748,-252.564 516.7125,-259.0481"/>
</g>
<!-- [root] google_compute_instance.ilb&#45;instance&#45;2&#45;&gt;[root] var.region_zone -->
<g id="edge_10" class="edge">
<title>[root] google_compute_instance.ilb&#45;instance&#45;2&#45;&gt;[root] var.region_zone</title>
<path fill="none" stroke="#000000" d="M392,-287.8314C392,-280.131 392,-270.9743 392,-262.4166"/>
<polygon fill="#000000" stroke="#000000" points="395.5001,-262.4132 392,-252.4133 388.5001,-262.4133 395.5001,-262.4132"/>
</g>
<!-- [root] google_compute_instance.ilb&#45;instance&#45;3 -->
<g id="node_9" class="node">
<title>[root] google_compute_instance.ilb&#45;instance&#45;3</title>
<polygon fill="none" stroke="#000000" points="774,-306 774,-321 890,-321 890,-306 774,-306"/>
<text text-anchor="start" x="776.791" y="-311.6" font-family="courier new" font-size="8.00" fill="#000000">google_compute_instance</text>
<polygon fill="none" stroke="#000000" points="774,-291 774,-306 890,-306 890,-291 774,-291"/>
<text text-anchor="start" x="798.3945" y="-296.6" font-family="courier new" font-size="8.00" fill="#000000">ilb&#45;instance&#45;3</text>
</g>
<!-- [root] google_compute_instance.ilb&#45;instance&#45;3&#45;&gt;[root] google_compute_subnetwork.my&#45;custom&#45;subnet -->
<g id="edge_11" class="edge">
<title>[root] google_compute_instance.ilb&#45;instance&#45;3&#45;&gt;[root] google_compute_subnetwork.my&#45;custom&#45;subnet</title>
<path fill="none" stroke="#000000" d="M773.958,-290.1102C735.1658,-279.4903 683.8164,-265.4326 642.2201,-254.045"/>
<polygon fill="#000000" stroke="#000000" points="642.9847,-250.6257 632.4155,-251.3609 641.1364,-257.3772 642.9847,-250.6257"/>
</g>
<!-- [root] var.region_zone_2 -->
<g id="node_19" class="node">
<title>[root] var.region_zone_2</title>
<polygon fill="none" stroke="#000000" points="746,-234 746,-249 814,-249 814,-234 746,-234"/>
<text text-anchor="start" x="772.7988" y="-239.6" font-family="courier new" font-size="8.00" fill="#000000">var</text>
<polygon fill="none" stroke="#000000" points="746,-219 746,-234 814,-234 814,-219 746,-219"/>
<text text-anchor="start" x="748.7949" y="-224.6" font-family="courier new" font-size="8.00" fill="#000000">region_zone_2</text>
</g>
<!-- [root] google_compute_instance.ilb&#45;instance&#45;3&#45;&gt;[root] var.region_zone_2 -->
<g id="edge_12" class="edge">
<title>[root] google_compute_instance.ilb&#45;instance&#45;3&#45;&gt;[root] var.region_zone_2</title>
<path fill="none" stroke="#000000" d="M818.8782,-287.8314C812.9501,-279.6232 805.8271,-269.7606 799.3067,-260.7323"/>
<polygon fill="#000000" stroke="#000000" points="801.9908,-258.4708 793.2985,-252.4133 796.316,-262.5693 801.9908,-258.4708"/>
</g>
<!-- [root] google_compute_instance.ilb&#45;instance&#45;4 -->
<g id="node_10" class="node">
<title>[root] google_compute_instance.ilb&#45;instance&#45;4</title>
<polygon fill="none" stroke="#000000" points="640,-306 640,-321 756,-321 756,-306 640,-306"/>
<text text-anchor="start" x="642.791" y="-311.6" font-family="courier new" font-size="8.00" fill="#000000">google_compute_instance</text>
<polygon fill="none" stroke="#000000" points="640,-291 640,-306 756,-306 756,-291 640,-291"/>
<text text-anchor="start" x="664.3945" y="-296.6" font-family="courier new" font-size="8.00" fill="#000000">ilb&#45;instance&#45;4</text>
</g>
<!-- [root] google_compute_instance.ilb&#45;instance&#45;4&#45;&gt;[root] google_compute_subnetwork.my&#45;custom&#45;subnet -->
<g id="edge_13" class="edge">
<title>[root] google_compute_instance.ilb&#45;instance&#45;4&#45;&gt;[root] google_compute_subnetwork.my&#45;custom&#45;subnet</title>
<path fill="none" stroke="#000000" d="M665.4479,-287.8314C648.7952,-278.5368 628.3415,-267.1208 610.5615,-257.1971"/>
<polygon fill="#000000" stroke="#000000" points="611.9795,-253.9803 601.5417,-252.1628 608.5679,-260.0927 611.9795,-253.9803"/>
</g>
<!-- [root] google_compute_instance.ilb&#45;instance&#45;4&#45;&gt;[root] var.region_zone_2 -->
<g id="edge_14" class="edge">
<title>[root] google_compute_instance.ilb&#45;instance&#45;4&#45;&gt;[root] var.region_zone_2</title>
<path fill="none" stroke="#000000" d="M718.6921,-287.8314C728.6948,-279.0485 740.855,-268.3712 751.6999,-258.8489"/>
<polygon fill="#000000" stroke="#000000" points="754.1094,-261.3909 759.3146,-252.1628 749.4908,-256.1308 754.1094,-261.3909"/>
</g>
<!-- [root] google_compute_instance.standalone&#45;instance&#45;1 -->
<g id="node_11" class="node">
<title>[root] google_compute_instance.standalone&#45;instance&#45;1</title>
<polygon fill="none" stroke="#000000" points="488,-450 488,-465 604,-465 604,-450 488,-450"/>
<text text-anchor="start" x="490.791" y="-455.6" font-family="courier new" font-size="8.00" fill="#000000">google_compute_instance</text>
<polygon fill="none" stroke="#000000" points="488,-435 488,-450 604,-450 604,-435 488,-435"/>
<text text-anchor="start" x="495.5918" y="-440.6" font-family="courier new" font-size="8.00" fill="#000000">standalone&#45;instance&#45;1</text>
</g>
<!-- [root] google_compute_instance.standalone&#45;instance&#45;1&#45;&gt;[root] google_compute_subnetwork.my&#45;custom&#45;subnet -->
<g id="edge_15" class="edge">
<title>[root] google_compute_instance.standalone&#45;instance&#45;1&#45;&gt;[root] google_compute_subnetwork.my&#45;custom&#45;subnet</title>
<path fill="none" stroke="#000000" d="M567.2302,-431.7001C576.7114,-422.1377 586.8844,-409.602 592,-396 608.8977,-351.0704 602.9648,-334.9564 593,-288 591.1019,-279.0557 587.6165,-269.7941 583.8791,-261.5203"/>
<polygon fill="#000000" stroke="#000000" points="586.9495,-259.8294 579.4559,-252.3395 580.6432,-262.8676 586.9495,-259.8294"/>
</g>
<!-- [root] google_compute_instance.standalone&#45;instance&#45;1&#45;&gt;[root] var.region_zone -->
<g id="edge_16" class="edge">
<title>[root] google_compute_instance.standalone&#45;instance&#45;1&#45;&gt;[root] var.region_zone</title>
<path fill="none" stroke="#000000" d="M487.8745,-435.9175C433.9792,-419.3204 357.3863,-385.8115 325,-324 317.5743,-309.8275 318.0952,-302.4334 325,-288 331.3813,-274.6611 342.8434,-263.5646 354.5037,-254.9704"/>
<polygon fill="#000000" stroke="#000000" points="356.7009,-257.7073 362.9594,-249.1586 352.7358,-251.9386 356.7009,-257.7073"/>
</g>
<!-- [root] google_compute_instance_group.us&#45;ig1 -->
<g id="node_12" class="node">
<title>[root] google_compute_instance_group.us&#45;ig1</title>
<polygon fill="none" stroke="#000000" points="439,-378 439,-393 584,-393 584,-378 439,-378"/>
<text text-anchor="start" x="441.8887" y="-383.6" font-family="courier new" font-size="8.00" fill="#000000">google_compute_instance_group</text>
<polygon fill="none" stroke="#000000" points="439,-363 439,-378 584,-378 584,-363 439,-363"/>
<text text-anchor="start" x="497.0977" y="-368.6" font-family="courier new" font-size="8.00" fill="#000000">us&#45;ig1</text>
</g>
<!-- [root] google_compute_instance_group.us&#45;ig1&#45;&gt;[root] google_compute_instance.ilb&#45;instance&#45;1 -->
<g id="edge_17" class="edge">
<title>[root] google_compute_instance_group.us&#45;ig1&#45;&gt;[root] google_compute_instance.ilb&#45;instance&#45;1</title>
<path fill="none" stroke="#000000" d="M514.7851,-359.8314C516.3894,-352.131 518.297,-342.9743 520.0799,-334.4166"/>
<polygon fill="#000000" stroke="#000000" points="523.5507,-334.9169 522.1639,-324.4133 516.6979,-333.4892 523.5507,-334.9169"/>
</g>
<!-- [root] google_compute_instance_group.us&#45;ig1&#45;&gt;[root] google_compute_instance.ilb&#45;instance&#45;2 -->
<g id="edge_18" class="edge">
<title>[root] google_compute_instance_group.us&#45;ig1&#45;&gt;[root] google_compute_instance.ilb&#45;instance&#45;2</title>
<path fill="none" stroke="#000000" d="M480.9713,-359.8314C465.7504,-350.6221 447.0872,-339.3301 430.7917,-329.4706"/>
<polygon fill="#000000" stroke="#000000" points="432.3868,-326.345 422.0191,-324.1628 428.7631,-332.3341 432.3868,-326.345"/>
</g>
<!-- [root] google_compute_instance_group.us&#45;ig2 -->
<g id="node_13" class="node">
<title>[root] google_compute_instance_group.us&#45;ig2</title>
<polygon fill="none" stroke="#000000" points="642,-378 642,-393 787,-393 787,-378 642,-378"/>
<text text-anchor="start" x="644.8887" y="-383.6" font-family="courier new" font-size="8.00" fill="#000000">google_compute_instance_group</text>
<polygon fill="none" stroke="#000000" points="642,-363 642,-378 787,-378 787,-363 642,-363"/>
<text text-anchor="start" x="700.0977" y="-368.6" font-family="courier new" font-size="8.00" fill="#000000">us&#45;ig2</text>
</g>
<!-- [root] google_compute_instance_group.us&#45;ig2&#45;&gt;[root] google_compute_instance.ilb&#45;instance&#45;3 -->
<g id="edge_19" class="edge">
<title>[root] google_compute_instance_group.us&#45;ig2&#45;&gt;[root] google_compute_instance.ilb&#45;instance&#45;3</title>
<path fill="none" stroke="#000000" d="M743.7764,-359.8314C758.8693,-350.6221 777.3757,-339.3301 793.5343,-329.4706"/>
<polygon fill="#000000" stroke="#000000" points="795.5198,-332.3593 802.2331,-324.1628 791.8737,-326.3838 795.5198,-332.3593"/>
</g>
<!-- [root] google_compute_instance_group.us&#45;ig2&#45;&gt;[root] google_compute_instance.ilb&#45;instance&#45;4 -->
<g id="edge_20" class="edge">
<title>[root] google_compute_instance_group.us&#45;ig2&#45;&gt;[root] google_compute_instance.ilb&#45;instance&#45;4</title>
<path fill="none" stroke="#000000" d="M709.9625,-359.8314C708.2513,-352.131 706.2165,-342.9743 704.3148,-334.4166"/>
<polygon fill="#000000" stroke="#000000" points="707.6779,-333.4159 702.0918,-324.4133 700.8446,-334.9344 707.6779,-333.4159"/>
</g>
<!-- [root] google_compute_network.my&#45;custom&#45;network&#45;&gt;[root] provider.google -->
<g id="edge_21" class="edge">
<title>[root] google_compute_network.my&#45;custom&#45;network&#45;&gt;[root] provider.google</title>
<path fill="none" stroke="#000000" d="M285.664,-143.8314C293.9732,-135.2848 304.0264,-124.9443 313.0918,-115.6198"/>
<polygon fill="#000000" stroke="#000000" points="315.6369,-118.023 320.0982,-108.4133 310.6179,-113.1435 315.6369,-118.023"/>
</g>
<!-- [root] google_compute_region_backend_service.my&#45;int&#45;lb&#45;&gt;[root] google_compute_health_check.my&#45;tcp&#45;health&#45;check -->
<g id="edge_22" class="edge">
<title>[root] google_compute_region_backend_service.my&#45;int&#45;lb&#45;&gt;[root] google_compute_health_check.my&#45;tcp&#45;health&#45;check</title>
<path fill="none" stroke="#000000" d="M767.5399,-431.8969C832.0619,-406.7 928.3939,-356.3369 899,-288 872.0663,-225.3827 798.4522,-193.15 740.5315,-177.0433"/>
<polygon fill="#000000" stroke="#000000" points="741.213,-173.6028 730.6487,-174.4071 739.4088,-180.3663 741.213,-173.6028"/>
</g>
<!-- [root] google_compute_region_backend_service.my&#45;int&#45;lb&#45;&gt;[root] google_compute_instance_group.us&#45;ig1 -->
<g id="edge_23" class="edge">
<title>[root] google_compute_region_backend_service.my&#45;int&#45;lb&#45;&gt;[root] google_compute_instance_group.us&#45;ig1</title>
<path fill="none" stroke="#000000" d="M663.0366,-431.9243C635.2853,-422.0815 600.7672,-409.8386 571.6386,-399.5073"/>
<polygon fill="#000000" stroke="#000000" points="572.5792,-396.1273 561.9844,-396.0831 570.2392,-402.7246 572.5792,-396.1273"/>
</g>
<!-- [root] google_compute_region_backend_service.my&#45;int&#45;lb&#45;&gt;[root] google_compute_instance_group.us&#45;ig2 -->
<g id="edge_24" class="edge">
<title>[root] google_compute_region_backend_service.my&#45;int&#45;lb&#45;&gt;[root] google_compute_instance_group.us&#45;ig2</title>
<path fill="none" stroke="#000000" d="M714,-431.8314C714,-424.131 714,-414.9743 714,-406.4166"/>
<polygon fill="#000000" stroke="#000000" points="717.5001,-406.4132 714,-396.4133 710.5001,-406.4133 717.5001,-406.4132"/>
</g>
<!-- [root] google_compute_subnetwork.my&#45;custom&#45;subnet&#45;&gt;[root] google_compute_network.my&#45;custom&#45;network -->
<g id="edge_25" class="edge">
<title>[root] google_compute_subnetwork.my&#45;custom&#45;subnet&#45;&gt;[root] google_compute_network.my&#45;custom&#45;network</title>
<path fill="none" stroke="#000000" d="M505.9005,-218.9064C455.4769,-206.845 385.0224,-189.9921 333.8806,-177.7588"/>
<polygon fill="#000000" stroke="#000000" points="334.4613,-174.299 323.9214,-175.3765 332.8327,-181.107 334.4613,-174.299"/>
</g>
<!-- [root] var.project_name -->
<g id="node_23" class="node">
<title>[root] var.project_name</title>
<polygon fill="none" stroke="#000000" points="269,-18 269,-33 332,-33 332,-18 269,-18"/>
<text text-anchor="start" x="293.2988" y="-23.6" font-family="courier new" font-size="8.00" fill="#000000">var</text>
<polygon fill="none" stroke="#000000" points="269,-3 269,-18 332,-18 332,-3 269,-3"/>
<text text-anchor="start" x="271.6953" y="-8.6" font-family="courier new" font-size="8.00" fill="#000000">project_name</text>
</g>
<!-- [root] provider.google&#45;&gt;[root] var.project_name -->
<g id="edge_41" class="edge">
<title>[root] provider.google&#45;&gt;[root] var.project_name</title>
<path fill="none" stroke="#000000" d="M328.411,-71.8314C324.1683,-63.7925 319.0879,-54.1666 314.404,-45.2918"/>
<polygon fill="#000000" stroke="#000000" points="317.4811,-43.6235 309.7181,-36.4133 311.2904,-46.8908 317.4811,-43.6235"/>
</g>
<!-- [root] var.region -->
<g id="node_24" class="node">
<title>[root] var.region</title>
<polygon fill="none" stroke="#000000" points="360,-18 360,-33 394,-33 394,-18 360,-18"/>
<text text-anchor="start" x="369.7988" y="-23.6" font-family="courier new" font-size="8.00" fill="#000000">var</text>
<polygon fill="none" stroke="#000000" points="360,-3 360,-18 394,-18 394,-3 360,-3"/>
<text text-anchor="start" x="362.5977" y="-8.6" font-family="courier new" font-size="8.00" fill="#000000">region</text>
</g>
<!-- [root] provider.google&#45;&gt;[root] var.region -->
<g id="edge_42" class="edge">
<title>[root] provider.google&#45;&gt;[root] var.region</title>
<path fill="none" stroke="#000000" d="M347.8413,-71.8314C352.1957,-63.7925 357.4098,-54.1666 362.2169,-45.2918"/>
<polygon fill="#000000" stroke="#000000" points="365.3408,-46.8732 367.0261,-36.4133 359.1857,-43.5392 365.3408,-46.8732"/>
</g>
<!-- [root] meta.count&#45;boundary (count boundary fixup) -->
<g id="node_20" class="node">
<title>[root] meta.count&#45;boundary (count boundary fixup)</title>
<polygon fill="none" stroke="#000000" points="458,-666 458,-681 531,-681 531,-666 458,-666"/>
<text text-anchor="start" x="484.8984" y="-671.6" font-family="courier new" font-size="8.00" fill="#000000">meta</text>
<polygon fill="none" stroke="#000000" points="458,-651 458,-666 531,-666 531,-651 458,-651"/>
<text text-anchor="start" x="460.8945" y="-656.6" font-family="courier new" font-size="8.00" fill="#000000">count&#45;boundary</text>
</g>
<!-- [root] meta.count&#45;boundary (count boundary fixup)&#45;&gt;[root] google_compute_firewall.allow&#45;all&#45;internal -->
<g id="edge_26" class="edge">
<title>[root] meta.count&#45;boundary (count boundary fixup)&#45;&gt;[root] google_compute_firewall.allow&#45;all&#45;internal</title>
<path fill="none" stroke="#000000" d="M472.7227,-647.7623C442.8056,-622.119 388.2267,-575.3372 354.7305,-546.6262"/>
<polygon fill="#000000" stroke="#000000" points="356.9749,-543.9402 347.1046,-540.0896 352.4194,-549.255 356.9749,-543.9402"/>
</g>
<!-- [root] meta.count&#45;boundary (count boundary fixup)&#45;&gt;[root] google_compute_firewall.allow&#45;health&#45;check -->
<g id="edge_27" class="edge">
<title>[root] meta.count&#45;boundary (count boundary fixup)&#45;&gt;[root] google_compute_firewall.allow&#45;health&#45;check</title>
<path fill="none" stroke="#000000" d="M489.6939,-647.7623C483.8691,-623.0928 473.4252,-578.8598 466.6048,-549.9731"/>
<polygon fill="#000000" stroke="#000000" points="469.9755,-549.0177 464.2712,-540.0896 463.1628,-550.6263 469.9755,-549.0177"/>
</g>
<!-- [root] meta.count&#45;boundary (count boundary fixup)&#45;&gt;[root] google_compute_firewall.allow&#45;internal&#45;lb -->
<g id="edge_28" class="edge">
<title>[root] meta.count&#45;boundary (count boundary fixup)&#45;&gt;[root] google_compute_firewall.allow&#45;internal&#45;lb</title>
<path fill="none" stroke="#000000" d="M530.5653,-661.481C593.8024,-653.1876 720.5198,-634.3249 759,-612 785.474,-596.6407 807.6245,-569.1841 821.6692,-548.6227"/>
<polygon fill="#000000" stroke="#000000" points="824.7678,-550.2821 827.3596,-540.0091 818.9272,-546.4236 824.7678,-550.2821"/>
</g>
<!-- [root] meta.count&#45;boundary (count boundary fixup)&#45;&gt;[root] google_compute_firewall.allow&#45;ssh&#45;rdp&#45;icmp -->
<g id="edge_29" class="edge">
<title>[root] meta.count&#45;boundary (count boundary fixup)&#45;&gt;[root] google_compute_firewall.allow&#45;ssh&#45;rdp&#45;icmp</title>
<path fill="none" stroke="#000000" d="M457.3343,-656.4413C418.8907,-646.2182 356.8407,-629.1491 304,-612 238.1025,-590.6134 163.5179,-562.8087 113.9222,-543.7983"/>
<polygon fill="#000000" stroke="#000000" points="114.9362,-540.4384 104.3462,-540.118 112.4249,-546.9725 114.9362,-540.4384"/>
</g>
<!-- [root] meta.count&#45;boundary (count boundary fixup)&#45;&gt;[root] google_compute_firewall.allow&#45;ssh&#45;to&#45;standalone -->
<g id="edge_30" class="edge">
<title>[root] meta.count&#45;boundary (count boundary fixup)&#45;&gt;[root] google_compute_firewall.allow&#45;ssh&#45;to&#45;standalone</title>
<path fill="none" stroke="#000000" d="M457.2708,-648.4867C402.51,-622.3757 299.4629,-573.2406 239.1882,-544.5003"/>
<polygon fill="#000000" stroke="#000000" points="240.4284,-541.2142 229.8956,-540.0694 237.4156,-547.5327 240.4284,-541.2142"/>
</g>
<!-- [root] meta.count&#45;boundary (count boundary fixup)&#45;&gt;[root] google_compute_instance.standalone&#45;instance&#45;1 -->
<g id="edge_31" class="edge">
<title>[root] meta.count&#45;boundary (count boundary fixup)&#45;&gt;[root] google_compute_instance.standalone&#45;instance&#45;1</title>
<path fill="none" stroke="#000000" d="M499.0867,-647.7062C505.8188,-623.2503 517.8973,-578.5113 527,-540 531.8596,-519.4401 536.7706,-496.0951 540.3821,-478.3341"/>
<polygon fill="#000000" stroke="#000000" points="543.8538,-478.8235 542.3993,-468.3289 536.9918,-477.4399 543.8538,-478.8235"/>
</g>
<!-- [root] output.internal_load_balancer_ip -->
<g id="node_21" class="node">
<title>[root] output.internal_load_balancer_ip</title>
<polygon fill="none" stroke="#000000" points="624,-594 624,-609 750,-609 750,-594 624,-594"/>
<text text-anchor="start" x="672.5977" y="-599.6" font-family="courier new" font-size="8.00" fill="#000000">output</text>
<polygon fill="none" stroke="#000000" points="624,-579 624,-594 750,-594 750,-579 624,-579"/>
<text text-anchor="start" x="626.9902" y="-584.6" font-family="courier new" font-size="8.00" fill="#000000">internal_load_balancer_ip</text>
</g>
<!-- [root] meta.count&#45;boundary (count boundary fixup)&#45;&gt;[root] output.internal_load_balancer_ip -->
<g id="edge_32" class="edge">
<title>[root] meta.count&#45;boundary (count boundary fixup)&#45;&gt;[root] output.internal_load_balancer_ip</title>
<path fill="none" stroke="#000000" d="M530.7561,-652.2879C558.5086,-641.9346 597.1299,-627.5267 629.03,-615.6261"/>
<polygon fill="#000000" stroke="#000000" points="630.5489,-618.7952 638.6948,-612.0206 628.1022,-612.2367 630.5489,-618.7952"/>
</g>
<!-- [root] output.internal_load_balancer_ip&#45;&gt;[root] google_compute_forwarding_rule.my&#45;int&#45;lb&#45;forwarding&#45;rule -->
<g id="edge_33" class="edge">
<title>[root] output.internal_load_balancer_ip&#45;&gt;[root] google_compute_forwarding_rule.my&#45;int&#45;lb&#45;forwarding&#45;rule</title>
<path fill="none" stroke="#000000" d="M687,-575.8314C687,-568.131 687,-558.9743 687,-550.4166"/>
<polygon fill="#000000" stroke="#000000" points="690.5001,-550.4132 687,-540.4133 683.5001,-550.4133 690.5001,-550.4132"/>
</g>
<!-- [root] provider.google (close) -->
<g id="node_22" class="node">
<title>[root] provider.google (close)</title>
<polygon fill="none" stroke="#000000" points="557,-594 557,-609 601,-609 601,-594 557,-594"/>
<text text-anchor="start" x="559.7969" y="-599.6" font-family="courier new" font-size="8.00" fill="#000000">provider</text>
<polygon fill="none" stroke="#000000" points="557,-579 557,-594 601,-594 601,-579 557,-579"/>
<text text-anchor="start" x="564.5977" y="-584.6" font-family="courier new" font-size="8.00" fill="#000000">google</text>
</g>
<!-- [root] provider.google (close)&#45;&gt;[root] google_compute_firewall.allow&#45;all&#45;internal -->
<g id="edge_34" class="edge">
<title>[root] provider.google (close)&#45;&gt;[root] google_compute_firewall.allow&#45;all&#45;internal</title>
<path fill="none" stroke="#000000" d="M551.9246,-586.2947C514.5006,-575.6444 445.7139,-556.0688 393.8354,-541.3049"/>
<polygon fill="#000000" stroke="#000000" points="394.6046,-537.8849 384.0284,-538.514 392.6885,-544.6176 394.6046,-537.8849"/>
</g>
<!-- [root] provider.google (close)&#45;&gt;[root] google_compute_firewall.allow&#45;health&#45;check -->
<g id="edge_35" class="edge">
<title>[root] provider.google (close)&#45;&gt;[root] google_compute_firewall.allow&#45;health&#45;check</title>
<path fill="none" stroke="#000000" d="M551.9971,-577.6621C536.2304,-568.1226 516.0721,-555.926 498.6459,-545.3824"/>
<polygon fill="#000000" stroke="#000000" points="500.1877,-542.2245 489.82,-540.0423 496.564,-548.2136 500.1877,-542.2245"/>
</g>
<!-- [root] provider.google (close)&#45;&gt;[root] google_compute_firewall.allow&#45;internal&#45;lb -->
<g id="edge_36" class="edge">
<title>[root] provider.google (close)&#45;&gt;[root] google_compute_firewall.allow&#45;internal&#45;lb</title>
<path fill="none" stroke="#000000" d="M606.2228,-579.5531C609.1447,-578.255 612.1068,-577.0405 615,-576 679.0803,-552.9552 700.157,-556.8313 770.1907,-540.1173"/>
<polygon fill="#000000" stroke="#000000" points="771.0453,-543.5115 779.9282,-537.7372 769.3832,-536.7117 771.0453,-543.5115"/>
</g>
<!-- [root] provider.google (close)&#45;&gt;[root] google_compute_firewall.allow&#45;ssh&#45;rdp&#45;icmp -->
<g id="edge_37" class="edge">
<title>[root] provider.google (close)&#45;&gt;[root] google_compute_firewall.allow&#45;ssh&#45;rdp&#45;icmp</title>
<path fill="none" stroke="#000000" d="M551.926,-592.148C482.5976,-587.1166 292.9649,-571.5361 126.283,-540.1043"/>
<polygon fill="#000000" stroke="#000000" points="126.8295,-536.6455 116.3504,-538.207 125.516,-543.5212 126.8295,-536.6455"/>
</g>
<!-- [root] provider.google (close)&#45;&gt;[root] google_compute_firewall.allow&#45;ssh&#45;to&#45;standalone -->
<g id="edge_38" class="edge">
<title>[root] provider.google (close)&#45;&gt;[root] google_compute_firewall.allow&#45;ssh&#45;to&#45;standalone</title>
<path fill="none" stroke="#000000" d="M551.8617,-590.3118C498.0554,-582.8091 373.9113,-564.5531 259.9577,-540.1041"/>
<polygon fill="#000000" stroke="#000000" points="260.5363,-536.6483 250.0218,-537.9507 259.0535,-543.4895 260.5363,-536.6483"/>
</g>
<!-- [root] provider.google (close)&#45;&gt;[root] google_compute_forwarding_rule.my&#45;int&#45;lb&#45;forwarding&#45;rule -->
<g id="edge_39" class="edge">
<title>[root] provider.google (close)&#45;&gt;[root] google_compute_forwarding_rule.my&#45;int&#45;lb&#45;forwarding&#45;rule</title>
<path fill="none" stroke="#000000" d="M606.253,-575.8314C619.9389,-566.7074 636.6915,-555.539 651.3827,-545.7449"/>
<polygon fill="#000000" stroke="#000000" points="653.3767,-548.6221 659.7558,-540.1628 649.4938,-542.7977 653.3767,-548.6221"/>
</g>
<!-- [root] provider.google (close)&#45;&gt;[root] google_compute_instance.standalone&#45;instance&#45;1 -->
<g id="edge_40" class="edge">
<title>[root] provider.google (close)&#45;&gt;[root] google_compute_instance.standalone&#45;instance&#45;1</title>
<path fill="none" stroke="#000000" d="M575.3861,-575.6742C571.7323,-557.4495 565.81,-528.7177 560,-504 558.0367,-495.6474 555.7555,-486.6087 553.6117,-478.3591"/>
<polygon fill="#000000" stroke="#000000" points="556.9322,-477.2237 551.0039,-468.4427 550.1624,-479.0041 556.9322,-477.2237"/>
</g>
<!-- [root] root -->
<g id="node_25" class="node">
<title>[root] root</title>
<polygon fill="none" stroke="#000000" points="560.3089,-756 491.6911,-756 491.6911,-720 560.3089,-720 560.3089,-756"/>
<text text-anchor="middle" x="526" y="-736.1313" font-family="courier new" font-size="8.00" fill="#000000">[root] root</text>
</g>
<!-- [root] root&#45;&gt;[root] meta.count&#45;boundary (count boundary fixup) -->
<g id="edge_43" class="edge">
<title>[root] root&#45;&gt;[root] meta.count&#45;boundary (count boundary fixup)</title>
<path fill="none" stroke="#000000" d="M517.925,-719.8314C514.3898,-711.8771 510.164,-702.369 506.2544,-693.5723"/>
<polygon fill="#000000" stroke="#000000" points="509.4435,-692.1299 502.1837,-684.4133 503.0468,-694.9729 509.4435,-692.1299"/>
</g>
<!-- [root] root&#45;&gt;[root] provider.google (close) -->
<g id="edge_44" class="edge">
<title>[root] root&#45;&gt;[root] provider.google (close)</title>
<path fill="none" stroke="#000000" d="M532.7125,-719.7623C541.832,-694.9846 558.2154,-650.4714 568.8439,-621.5939"/>
<polygon fill="#000000" stroke="#000000" points="572.1725,-622.6831 572.342,-612.0896 565.6033,-620.2652 572.1725,-622.6831"/>
</g>
</g>
</svg>

